"일련번호","예약구분","프로그램명","운영기관","내용","전화여부","확인여부","취소여부","완료여부","예약시작일","예약종료일"
"71","E003","스탬프 민화 전시","CA","안녕하세요 CA(씨에이) 라는 이름으로 한국의 전통문화를 쉽게 이해하고 현대적으로 전파하는데에 목적을 두고 활동하고 있는 박서인이라고 합니다.  저는 서울대학교 디자인과를 졸업하였으며 본 작업은 민화 작가이신 어머니의 작업들에 영감을 받아 조금 더 현대적이고 이해하기 쉬운 그림으로 전달 해 보자는 취지에서 시작된 프로젝트입니다.  현재 문체부와 한국전통문화전당에 후원을 받고 있는 작업이며 해당 후원의 최종 성과 보고를 위한 전시를 준비하고 있습니다.   또한 <한복 여행가>활동으로 유명하신 권미루 단장님의 멘토링 하에 종로문화재단의 한옥에서 원데이 클래스등을 진행 했으며 추가로 진행 할 예정입니다.  현재 저는 북촌에 위치한 건명원에서 수학하고 있으며 건명원에서도 이와 같은 전시와 클래스를 위하여 많은 응원과 협조를 해 주시고 계십니다. 일련의 과정을 위해서 이번 전시는 대중에게 선보이기 위해 필수적이라고 판단하였습니다.   신청은 최소 3주 전이라고 쓰여있어 8월 23일 - 25일로 신청하였으나  가능하다면 전시를 8월 17일 - 18일 진행 할 수 있다면 가장 이상적입니다.   첨부한 파일에서 확일하실 수 있듯이 그림은 민화를 현대적으로 재해석 한 작품이며  외국인을 대상으로 한국의 현대적 미와 민화의 본질인 '나의 감정을 파악하고 염원을 드러내기'를 다가가기 쉬운 전시라는 방법으로 향유하려합니다. 자세한 사항은 첨부한 기획서를 확인 해 주시면 감사하겠습니다.   짧은 기간의 전시이지만 외국인들의 활동 시간대와 동선을 최대한으로 활용하여 한국의 전통 문화를 향유할 수 있도록 하고싶습니다.   그럼 좋은 답변 기다리겠습니다. 감사합니다.","N","N","N","N","2019-08-23 00:00:00.0","2019-08-26 00:00:00.0"
"67","E003","감성수채캘리그라피천아트","캘리라라","감정이 담긴 수채캘리그라피와 천아트의 콜라보 전시회 입니다","N","N","N","N","2019-09-18 00:00:00.0","2019-09-28 00:00:00.0"
"84","E003","한옥이 아름다운  골목 그리기 전시","행복한 마을스케치 모임","행복한 마을 스케체모임을 2018년 가을 결성된 모임으로  서울의 오래된 골목을 현장에서 그리는 모임입니다.  정기전및 전시회를 3회 개최하였습니다.   이번의 그림의 주제는  한옥이 아름다운 골목과 정원을 중심으로 한 전시회입니다.  -6/2 담당자 유선 확인 후 대관 일자 조정 10/29~11/9 -> 11/24~29","N","N","N","N","2020-11-24 00:00:00.0","2020-11-29 00:00:00.0"
"80","E003","시민자율강좌 : 꿈꾸는예술가! 어린이 미술사&미술교실","최서연 (북촌문화센터 시민자율강좌 강사)","어린이의 눈높이에 맞춘 인문학 미술사 수업과 미술 창작활동을 하는 미술놀이를 하며 나온 결과물을 스스로 전시기획하여 '나만의 전시회' 를 열고 도슨트를 해보는 시간.","N","N","N","N","2020-08-21 00:00:00.0","2020-08-30 00:00:00.0"
"82","E003","<CONNECT>","이세림 이은경 김미주","김미주 이세림 이은경 3인이 자연으로부터 얻은 소재로 작업한 작품을 자연과 어우러지는 건축물인 한옥에서 전시하고자 합니다. 자세한 사항은 파일로 첨부하였습니다.  감사합니다.","N","N","N","N","2020-08-11 00:00:00.0","2020-08-16 00:00:00.0"
"10","E003","서울의 골목스케치","행복한 스케치","행복한 스케치팀은 한옥지원센터 주최 이장희 선생님의 한옥그리기 스케치를     2016년 5월부터 5회에 걸쳐 강의를 수료한 수료생들의 스케치모임입니다.     수강을 마친 후 2016년 7월부터 월 2회에 걸쳐 7명의 회원들이 모여     지속적으로 스케치를 했습니다.   저희에게 한옥과 어반스케치를 입문할 수 있도록 도움을 주셔서 감사드립니다.     그 후 지속적으로  스케치를 한 결과물을 소박하게나마 다음과 같이 전시를        하고자 하오니 허가하여 주시기 바랍니다.","Y","Y","N","Y","2017-11-23 00:00:00.0","2017-11-26 00:00:00.0"
"41","E003","장애학생 학부모 전통 조각보 전시 '한땀한땀'","중부교육지원청 특수교육지원센터","2019년 장애학생 학부모 전통 조각보 전시회를 2017 2018년에 이어 진행하고자 합니다. 늘 주민과 함게하는 전시회로 실시하고자 합니다.","Y","Y","N","Y","2019-06-12 00:00:00.0","2019-06-14 00:00:00.0"
"73","E003","작은쉼터갤러리 테스트중입니다.","작은쉼터갤러리 테스트중입니다.","작은쉼터갤러리 테스트중입니다.","N","N","Y","Y","2019-08-17 00:00:00.0","2019-08-18 00:00:00.0"
"30","E003","한국 전통 복식문화 알리기","성균관대학교 일반대학원 의상학과 복식사 연구실","성균관대학교 일반대학원 의상학과 석사박사과정 재학생 참가     - 추가 자료 요청하였으나 제출이 없음.","Y","Y","N","N","2018-11-21 00:00:00.0","2018-11-27 00:00:00.0"
"32","E003","전통문화강좌 커뮤니티전 ‘풀짚공예:시간을 엮다’","문화다움","문화다움","N","N","N","Y","2018-10-24 00:00:00.0","2018-10-31 00:00:00.0"
"55","E003","전통문화강좌 전시","문화다움","전통문화강좌 전시  -9/3 담당자확인 대관취소확인","N","N","Y","N","2019-09-03 00:00:00.0","2019-09-17 00:00:00.0"
"46","E003","전통문화강좌 커뮤니티전 ‘문인화Ⅰ'","문화다움","문화다움  Ⅰ","Y","Y","N","Y","2019-06-04 00:00:00.0","2019-06-11 00:00:00.0"
"47","E003","전통문화강좌 커뮤니티전 ‘매듭공예'","문화다움","문화다움","Y","Y","N","Y","2019-06-21 00:00:00.0","2019-07-04 00:00:00.0"
"76","E003","봄이오다 2","한국보자기아트협회","작년에 이어 올해도 대주제 '봄'을 소재로 다양하고 참신한 보자기작품들을 선보일 예정입니다.  작년처럼 협회내에서 9명의 보자기아티스트작가들을 공개모집하여 각자의 독창성과 보자기작품의 아름다움을 알리려고 합니다. 준비기간을 더 길게하여 작년보다 더 성숙된 작품들을 선보일 예정입니다.  꼭 원하는 날짜에 채택바랍니다. 감사합니다.  -5/8 담당자 통화 한달 장기 릴레이 전시 희망 일정 논의 중 -5/12 담당자 통화 10/13~11/11로 일정 변경 확정","Y","Y","N","N","2020-10-13 00:00:00.0","2020-11-11 00:00:00.0"
"69","E003","test","test","test","N","N","Y","N","2019-08-12 00:00:00.0","2019-08-18 00:00:00.0"
"83","E003","소소(笑笑)한 북촌 사진전","(주)아트램프","1. 전시 소개: 8월 초 전시를 기획중인 ‘소소한 북촌 사진전’은 시민들이 서울의 문화?예술 중심지인 북촌을 도보 관광하며 촬영한 지역 일대를 온라인에 출품하는 시민 참여 사진전입니다.(참여 기간: 6. 22 - 7. 20) 온라인에 출품된 작품 중 온라인 시민 투표와 전문 심사위원의 평가를 통해 선정된 우수작 10여 점을 출력하여 전시하고 콘테스트에 출품한 모든 작품과 참여 과정을 미디어월로 제작해 북촌 작은쉼터갤러리에 전시하고자 합니다. 자세한 내용은 전시 계획서를 참고해 주시길 바랍니다 :)  2. 단체 소개: 아트램프는 예술향유 공유와 예술창작물 생산-소비 생태계의 선순환 구조 조성의 임무를 가지고 예술창작자와 향유자 사이에서 교량의 역할을 하는 문화예술 플랫폼입니다. 2019년 온라인 미디어 활동을 시작으로 예술과 디지털 기술의 시너지를 통해 예술적 경험 가치를 확장해 나가고 있습니다. 2020년에는 사회적기업가 육성사업에 선정되어 예술가들이 가진 유?무형의 콘텐츠를 개발 생산 제공하며 취약 계층의 예술가가 자립할 수 있도록 돕고 있습니다. 또 디지털 기술을 활용한 다채로운 문화예술 체험 기획을 통해 지역 주민의 삶의 질 향상에 기여를 하고자 합니다.  3. 기타 요청사항: - 시민들이 출품한 모든 사진을 모자이크 형식의 콘텐츠로 제작해 미디어월로 전시할 예정인데 이 때 빔 프로젝터를 이용할 예정입니다. 빔 프로젝터는 준비가 되어있으니 시설에 이용이 가능한지 궁금합니다. - 만약 전시 일정이 변경되거나 취소된다면 언제까지 일정을 알려드려야 하는지 궁금합니다. - 일정 조율이 필요하다면 알려주세요.  -6/2 담당자 유선 확인 후 8/3~8/30 -> 12/1~12/30 로 대관 일정 변경","N","N","N","N","2020-12-01 00:00:00.0","2020-12-30 00:00:00.0"
"53","E003","전통문화강좌 커뮤니티전 ‘문인화Ⅱ'","문화다움","문화다움 전통문화강좌 커뮤니티전 ‘문인화Ⅱ'전","Y","Y","N","Y","2019-07-05 00:00:00.0","2019-07-15 00:00:00.0"
"77","E003","일상의 캘리그라피 전시","캘리 美","광진구 관내의 캘리를 사랑하는 모임으로 월2회 정기적인 모임을 갖고 있으며 재능기부와 봉사활동을 주로 하고 있으며 일상에서 소소하지만 마음에 아름다운 감성으로 다가오는 사물을 캘리그라피로 표현 해 보는 전시이다  -5/9 담당자통화 일정 변경 관련 논의 중(가안 : 9월 첫째 주 10월 둘째 주 각 일주일 씩) 다음주 중 확정 예정 -5/15 담당자통화 일정 변경 확정 9/1~9/5 1차 및 10/7~10/11 2차 진행 확정","Y","Y","N","N","2020-09-01 00:00:00.0","2020-09-05 00:00:00.0"
"31","E003","전통문화강좌 커뮤니티전 ‘규방공예’","문화다움","문화다움","N","N","N","Y","2018-10-01 00:00:00.0","2018-10-07 00:00:00.0"
"36","E003","서울예고 조소과 '북촌에 가다'","서울예고 조소과","서울예술고등학교 2학년 조소전공 학생 34명이 북촌이라는 큰 주제를 가지고 4개의 모둠(조)을 만들어 각 모임의 소주제를 정하고 북촌의 역사와 현재의 모습을 해석하고 미래를 상상해보며 각각의 작품을 제작합니다. 이를 통해 북촌의 어제와 오늘 그리고 내일을 조망하며 관람자에게 전통 문화와 예술에 대한 새로운 시각과 관심을 갖게 하는 새로운 경험의 장이 될 것입니다.","Y","Y","N","Y","2018-11-16 00:00:00.0","2018-11-18 00:00:00.0"
"39","E003","한국 전통의 아름다운 보자기","한국전통포장연구소  한국보자기아트협회","프로그램계획서  전시제목 :한국전통의 아름다운 보자기  전시일정 : 2019.4.29 - 5.31 또는 2019.4.16 - 5.15  전시의도 : 한국전통의 아름다움이 단기 보자기 작품을 선보이며 보자기 예술이라는 것에 대해 대중에게 소개하기 위함.  전시연출  : 전시 장소가 협소한 관계로 많은 작품을 보여주기보다 보자기 예술을 선보이기 위하여 한가지 매듭법을 다양한 색채의 보자기로 (색 선정하여 그라데이션 연출) 실물 설치 보자기 작품 활용하여 전시.   전시 작가 :한국전통포장연구소. 한국보자기아트협회소속 작가 4인   협회 소개 : 한국보자기아트협회는 우리의 아름다운 전통인 보자기 문화를 세련된 감각으로 재해석한 보자기아트 trend-setter 작가들의 모임입니다. 전통과 현대의 조화를 소중히 여기는 한국보자기아트협회는 조상의 배려와 포용의 철학이 담긴 고유의 문화인 보자기로 아름다운 작품을 만들고 디자인을 연구합니다.  보자기의 “보“는 ”복을 싸서 선물하다” ”본연의 것(허물)을 감싸주다” 라는 아름다운 뜻이 담겨있습니다. 보자기아트는 소중한 물건을 보자기로 싸고 덮고 깔고 매듭을 짓는 우리의 철학이 담긴 전통실용아트입니다. 한국적 전통미를 현대로 이어가는 젊고 센스있는 신선한 움직임이 모여서 한국보자기아트협회는 전국9개의 지회가 있으며 전통보자기의 세계화를 위해 힘쓰고 있습니다.","Y","Y","N","Y","2019-04-16 00:00:00.0","2019-05-13 00:00:00.0"
"79","E003","시민예술강좌 : 전래동화로 그리는 어린이 동양화","이재정","북촌 시민예술강좌 < 전래동화로 그리는 어린이 동양화 수업 >에서 수강생들이 그린 작품을 북촌 작은 쉼터 갤러리에 전시하고 자신의 작품을 지인들을 갤러리로 초대해 소개할 수 있는 경험을 만들어 주고 싶습니다.","N","N","N","N","2020-07-31 00:00:00.0","2020-08-08 00:00:00.0"
"78","E003","북촌풍경스케치-한 컷에 담은북촌","북촌문화센터 시민자율강좌 북촌풍경스케치","자세한 내용은 첨부파일 참고해 주세요. 특히 전시기간은 2020년 5월중이나 6월중 협의 가능하니 살펴 주시기 바랍니다.  -5/9 통화 불가 -5/15 담당자 통화 일정 변경 확정 6/9~6/21(첨부자료 재등록 요청)","Y","Y","N","N","2020-05-12 00:00:00.0","2020-05-22 00:00:00.0"
"17","E003","[당시(當時)의 한복 - 한복은 원래 트렌디한 옷이다] 전시","청연","？ 팀명 : 청연  ？ 전시명 : 당시(當時)의 한복 - 한복은 원래 트렌디한 옷이다  ？ 팀원 별 작업 :  손세희 / 회화 한양대학교 테크노프로덕트디자인 전공  메인 아이디어 : 우리와 한복  -한복은 우리가 우리라고 인식하기 이전에도 함께 해왔기 때문에 우리가 겪은 모든 일들은 그들과 함께 겪은 것이라고 할 수 있다. 나와 한복 우리와 한복이 함께 존재해오면서 경험한 모든 것과 느꼈을 모든 감정을 회화로 표현한다. (회화 3점 책 1권 예정)    이현경 / 음악 Summersnow 프로듀서 작곡가/Lollypop Moment 크루  메인 아이디어 : 가장 현재에 초점을 맞춘 음악  -음악과 공간성 모두 동시대성에 초점을 맞추어 현재 가장 트렌디한 장르(힙합Electro Pop)를 사용해 2018년 우리 모두가 한복을 향유하고 있는 공간을 표현한다.    최주영 / 일러스트 숙명여자대학교 공예과 칠 섬유 전공  메인 아이디어 : 한복 서양을 만나고 기술을 만나다  -뚜렷한 특징을 갖고 있는 시대별 한복을 표현한  작업으로 가장 좋아하는 작가인 알폰스 무하를 오마주한다.  -아두이노를 이용한 한국 전통 절기의 풍경을 미니어처로 재현한다.    온동훈 / 사진 한양대학교 문화인류학 전공 갤러리 옥키 전시 작가  메인 아이디어 : '한복은 무엇인가'라는 단순하면서도 본질적인 물음에 우리는 어떻게 답할 수 있을까? 한복은 변해왔고 변해가고 있다. 하지만 과연 이 변화에 방향이 존재하는가?  -누구나 알아보는 한복의 전형과 한복이라 할 수 없는 것 사이의 애매모호한 것들. 그들을 한 화면에 모아 그 불연속성을 부각시킨다. (A2 4점 예정)     김예빈 / 일러스트  메인 아이디어 : 20xx년의 한복  -한복의 멋에 대한 젊은 층의 관심은 폭발적인 증가 추세이지만 이것은 시작에 불과하다고 생각한다. 한복이 일상에서 가장 트렌디한 옷으로 자연스럽게 녹아든 훗날의 모습을 디지털 일러스트를 통해 표현한다. (디지털일러스트 3점 회화 1점 예정)","N","N","N","N","2018-09-09 00:00:00.0","2018-09-22 00:00:00.0"
"20","E003","주민 큐레이터전 ‘베갯모 이야기’","문화다움","ㅇㅇ","Y","Y","N","Y","2018-05-12 00:00:00.0","2018-05-27 00:00:00.0"
"25","E003","전통문화강좌 커뮤니티전 ‘문인화’","문화다움","문화다움","N","N","N","Y","2018-06-11 00:00:00.0","2018-06-17 00:00:00.0"
"28","E003","전통문화강좌 커뮤니티전 ‘매듭공예’","문화다움","문화다움","N","N","N","Y","2018-09-03 00:00:00.0","2018-09-09 00:00:00.0"
"29","E003","주민 큐레이터전 ‘조각보’","문화다움","문화다움","N","N","N","Y","2018-09-12 00:00:00.0","2018-09-16 00:00:00.0"
"81","E003","수북手북 ( 손수 만든 북공리작품이 수북하게 쌓였어요)","북촌공예동아리","<단체 프로필> 전통공예에 관심이 많은 주부들로 이루어진 북촌공예동아리는 2016년 종로구청 전통공예 강좌를 통해 인연을 맺게 되었습니다.  그 후에도 다양한 전통공예 강좌를 수강하면서 우리전통공예에 더 깊은 애정을 갖게 되었으며 더 많은 사람들과 전통공예의 아름다움을 공유하고 싶다는 마음으로 모임을 이어가고 있습니다. <세부내용> 2번의 수부수북 전시회에 방문했던 이웃주민들이 평범한 주부들의 작품으로 전통공예를 좀 더 가깝고 친숙하게 느끼게 되었다고 생각합니다. 올해는“종로구 평생학습동아리사업”을 통하여 몇 년 동안 쌓아 온 실력을 복습과 연구를 통해 발전시키고자 합니다. 기존에 만든 작품과 함께 새롭게 만든 작품을 세번째 수북수북 전시회에서 선보이려고 합니다. 8명의 회원들이 지난 전시회보다 성숙 된 작품으로 전시를 할 수 있을 것입니다.","N","N","N","N","2020-11-17 00:00:00.0","2020-11-20 00:00:00.0"
"85","E003","소소한 북촌 사진전","(주)아트램프","전시 소개: ‘소소한 북촌 사진전’은 시민들이 서울의 문화?예술 중심지인 북촌을 도보 관광하고 ‘아트 챌린지’를 수행하며 촬영한 지역 일대를 온라인에 출품하는 시민 참여 사진전입니다. 온라인에 출품된 작품 중 시민 투표와 전문 심사위원의 평가를 통해 선정된 우수작 10여 점을 출력하여 전시하고 콘테스트에 출품된 작품들과 참여 과정을 미디어월로 제작해 북촌 작은쉼터갤러리에 4주간 전시하고자 합니다. 자세한 내용은 전시 계획서를 참고해 주시길 바랍니다 :)  단체 소개: 아트램프는 예술향유 공유와 예술창작물 생산-소비 생태계의 선순환 구조 조성의 임무를 가지고 예술창작자와 향유자 사이에서 교량의 역할을 하는 문화예술 플랫폼입니다. 2019년 온라인 미디어 활동을 시작으로 예술과 디지털 기술의 시너지를 통해 예술적 경험 가치를 확장해 나가고 있습니다. 2020년에는 사회적기업가 육성사업에 선정되어 예술가들이 가진 유?무형의 콘텐츠를 개발 생산 제공하며 취약 계층의 예술가가 자립할 수 있도록 돕고 있습니다. 또 디지털 기술을 활용한 다채로운 문화예술 체험 기획을 통해 지역 주민의 삶의 질 향상에 기여를 하고자 합니다.  기타 요청사항: - 시민들이 출품한 모든 사진을 모자이크 형식의 콘텐츠로 제작해 미디어월로 전시할 예정인데 이 때 빔 프로젝터를 이용하고 싶습니다. 빔 프로젝터 사용이 가능한지 궁금합니다.","N","N","N","N","2020-08-03 00:00:00.0","2020-08-30 00:00:00.0"
"1","E003","테스트전시","웃찾사","신청해요","N","N","N","Y","2017-01-26 00:00:00.0","2017-01-27 00:00:00.0"
"2","E003","쉼터전시","쉼터전시","쉼터전시","N","Y","N","Y","2017-01-30 00:00:00.0","2017-01-31 00:00:00.0"
"4","E003","0000000","1111","1111","N","N","N","N","2017-03-15 00:00:00.0","2017-03-16 00:00:00.0"
"7","E003","봄꽃만이 알고있는 작은전시회 “화양연화”","미술관의 일요일(네이버동호회)","봄꽃만이 알고있는 작은전시회 “화양연화”","N","N","N","Y","2017-04-01 00:00:00.0","2017-04-12 00:00:00.0"
"12","E003","갤러리보수","문화다움","갤러리보수","Y","Y","N","Y","2017-12-08 00:00:00.0","2017-12-09 00:00:00.0"
"50","E003","전통문화강좌 커뮤니티전 ‘한복인형퀼트'","문화다움","문화다움","Y","Y","N","Y","2019-10-27 00:00:00.0","2019-11-11 00:00:00.0"
"51","E003","안원태개인전","안원태","안원태개인전  대나무는 조선시대 화원의 채용?승진 시험의 취재(取才)중 하나였다. 쉽게 접하기에 변별에 있어 용이하기도 했겠지만 대나무가 지니고 있는 속성인 올곧음 즉 지켜나가야 할 경계에 대한 시험이었다고 본다. 오늘날 현대인들의 가슴속에 심겨진 대나무는 무엇이고 이를 흔드는 바람은 무엇일까?   나는 최근 작품들에 현재진행형인 어린 삶을 지배했던 OMR카드를 바탕작업으로 하여 대나무 작품들을 제작하고 있다. 대한민국에서라면 누구나 겪어야 했던 시험의 상징성을 대나무의 동질감속에서 이해하고 있다. 공정성의 절대적 가치를 바탕으로 두었던 종이에 도덕적 인간이라는 사회적 가면과도 같은 대나무를 현대인으로 치환하여 작품들을 제작하여 왔다.   바른 경쟁 올바른 가치 정당한 대가를 추구하는 정의에 대한 고뇌를 담아내고자 한다.","N","N","N","N","2019-10-16 00:00:00.0","2019-10-22 00:00:00.0"
"11","E003","花.卉.展","c-art","C.ART 2017 작은 쉼터 갤러리 전시 참여 작가 명단  김효남 Kim Hyonam 홍익대학교 미술대학 동양화과 졸업 일본전자전문학교 CG영상학과 수료 졸업 후 긴 시간 동안 회사원 생활을 하며 지내다가 최근 다시 그림에 전념하기 시작하여 현재 C.art라는 아티스트그룹으로 활동 중입니다 단체전 :  아가미 展  / 지나봄 展 (2016) 외   김은주 kim Eunju 홍익대학교 미술대학 동양화과 졸업   이탈리아 에우로페오 디자인학교 일러스트레이션 전공 올리의 첫번째 이야기책< why am i so small?>영국 출판을시작으로  <올리가 변했어요><우리같이 놀자>가 국민서관에서 출판됩니다. 작품으로는 <인간의 오랜 친구 개><아빠 고르기> <말로 때리면 안 돼!>등이 있습니다. 현재 C.art라는 아티스트그룹으로 활동중입니다.   이선미 Lee Sonmi 홍익대학교 미술대학 동양화과 졸업 프랑스 브쟝송 에꼴데보자르 순수조형예술학과 졸업 현재 신당창작아케이드 8기입주작가로 작품 활동을 하고 있으며 소마미술관 예술아카데미 강사와 C.art라는 아티스트그룹으로 활동 중입니다.  '우리모두나무!'  2017청주시립대청호미술관 기획 체험미술전 - 2017. <the muse kim hyangan-timeless> 환기미술관 - 2016.10.~2017.01 '지나...봄' 갤러리 구루지 - 2016. '아시아-쿨라쿨라링' 국립아시아문화의전당 2016. <circus> 인디아트홀공 - 2016. <행복지구> 더 텍사스프로젝트 - 2016. 등 다수의 전시 참여","Y","Y","N","Y","2017-12-01 00:00:00.0","2017-12-07 00:00:00.0"
"56","E003","고종의 양탕국 - 한국의 커피역사 100년 展","Art & Coffee Academy Boyoung's Bunna","본원의 커피역사인문 강좌 중 하나인 <한국의 커피 역사>중 '고종의 양탕국'이란 주제로 참고 사진 및 그림으로 100여년전 궁을 중심으로 커피 문화의 전파와 양상을 이해하는 전시","N","N","N","N","2019-05-31 00:00:00.0","2019-06-06 00:00:00.0"
"59","E003","행복한 스케치 여행의 <일상다반사전>","행복한 스케치 여행","2016년 5월 북촌한옥지원센터에서 실시한 ‘서울스케치여행’프로그램에서 이장희 작가님에게 5회 수업을 받은 일곱 명이 현재까지 한 달에 2회 모여 함께 서울 곳곳의 풍경을 그림에 담는 활동을 하고 있습니다. 서울의 역사와 문화 뿐 아니라 다양한 식물상을 관찰하고 스케치로 기록한 시간을 전시하고자 합니다.   아래 첨부파일은 저희가 그리는 그림의 예이고 실제 전시할 그림은 아직 선정하지 않았습니다. 전시 전에 다시 제출하겠습니다.","N","N","Y","N","2019-09-23 00:00:00.0","2019-09-28 00:00:00.0"
"72","E003","스탬프 민화 전시","CA","파일첨부가 1부밖에 되지 않아 추가로 작성한 대관신청서 함께 첨부합니다. 자세한 내용은 10시 40분경 업로드한 전시 계획서 등을 참고 부탁드립니다. 감사합니다.","N","N","N","N","2019-08-17 00:00:00.0","2019-08-18 00:00:00.0"
"57","E003","행복한 스케치 여행의 '그림다반사 전시'(3차)","행복한 스케치 여행","2016년 5월 북촌한옥지원센터에서 실시한 ‘서울스케치여행’프로그램에서 이장희 작가님에게 5회 수업을 받은 일곱 명이 현재까지 한 달에 2회 모여 함께 서울 곳곳의 풍경을 그림에 담는 활동을 하고 있습니다. 서울의 역사와 문화 뿐 아니라 다양한 식물상을 관찰하고 스케치로 기록한 시간을 전시하고자 합니다.","N","N","Y","N","2019-09-23 00:00:00.0","2019-09-28 00:00:00.0"
"64","E003","문자도에 빠진 민화展","이희정","작가 프로필 및 전시 계획서 첨부파일 참고","Y","Y","N","Y","2019-09-18 00:00:00.0","2019-09-22 00:00:00.0"
"74","E003","수북手북 ( 손수 만든 북공리작품이 수북하게 쌓였어요)","북촌공예동아리","<단체 프로필> 전통공예에 관심이 많은 주부들로 이루어진 북촌공예동아리는 2016년 종로구청 전통공예강좌를 통해 인연을 맺게 되었습니다.  그 후에도 다양한 전통공예강좌를 수강하면서 우리전통공예에 더 깊은 애정을 갖게 되었으며 더 많은 사람들과 전통공예의 아름다움을 공유하고 싶다는 마음으로 모임을 이어가고 있습니다. <세부내용> 18년 첫 수부수북 전시회에 방문했던 이웃주민들이 평범한 주부들의 작품으로 전통공예를 좀 더 가깝고 친숙하게 느끼게 되었다고 생각합니다. 올해는“종로구 평생학습동아리사업”을 통하여 전통매듭 심화수업을 진행하였습니다. 기존에 만든 작품과 함께 동림매듭공방 선생님 지도로 심화수업에서 만드는 작품을 두번째 수북수북 전시회를 통해서 선보이려고 합니다.8명의 회원들이 작년보다 한층 더 전문적인 작품으로 전시를 할 수 있을 것입니다.","Y","Y","N","Y","2019-12-10 00:00:00.0","2019-12-13 00:00:00.0"
"8","E003","花卉_便紙","c.art","C.ART 2017 작은 쉼터 갤러리 전시 참여 작가 명단  이선미 Lee Sonmi 홍익대학교 미술대학 동양화과 졸업 프랑스 브쟝송 에꼴데보자르 순수조형예술학과 졸업 현재 신당창작아케이드 8기입주작가로 작품 활동을 하고 있으며 소마미술관 예술아카데미 강사와 C.art라는 아티스트그룹으로 활동 중입니다.  '우리모두나무!'  2017청주시립대청호미술관 기획 체험미술전 - 2017. <the muse kim hyangan-timeless> 환기미술관 - 2016.10.~2017.01 '지나...봄' 갤러리 구루지 - 2016. '아시아-쿨라쿨라링' 국립아시아문화의전당 2016. <circus> 인디아트홀공 - 2016. <행복지구> 더 텍사스프로젝트 - 2016. 등 다수의 전시 참여   김효남 Kim Hyonam 홍익대학교 미술대학 동양화과 졸업 일본전자전문학교 CG영상학과 수료 졸업 후 긴 시간 동안 회사원 생활을 하며 지내다가 최근 다시 그림에 전념하기 시작하여 현재 C.art라는 아티스트그룹으로 활동 중입니다 단체전 :  아가미 展  / 지나봄 展 (2016) 외   김은주 kim Eunju 홍익대학교 미술대학 동양화과 졸업   이탈리아 에우로페오 디자인학교 일러스트레이션 전공 올리의 첫번째 이야기책< why am i so small?>영국 출판을시작으로  <올리가 변했어요><우리같이 놀자>가 국민서관에서 출판됩니다. 작품으로는 <인간의 오랜 친구 개><아빠 고르기> <말로 때리면 안 돼!>등이 있습니다. 현재 C.art라는 아티스트그룹으로 활동중입니다.","N","N","N","N","2017-12-11 00:00:00.0","2017-12-17 00:00:00.0"
"9","E003","타박타박 동네지도","재동초 6학년+박열음","도시의 친구들에게 '우리 동네'는 어떤 의미일까요? 학군과 역세권 기준으로 등급이 매겨지는 도시의 동네 구분법에서 벗어나 발길 닿는 대로 함께 걷고 다르게 보면서 동네의 의미를 발견하고 나눴던 시간들을 작은 사진전을 통해 꺼내어 봅니다. 계동 안국동 삼청동에서 어린 시절을 보낸 재동초등학교 6학년 6명의 친구들이 저마다 보고 느끼는 동네 풍경을 필름 카메라에 담았습니다.  프로그램 지원: C Program(다음 세대의 건강하고 창의적인 성장을 지원하기 위한 벤처기부 펀드)","Y","Y","Y","Y","2017-11-14 00:00:00.0","2017-11-21 00:00:00.0"
"22","E003","정 . 중. 동 (靜. 中. 動 )  - 사진전시","사진그룹 '포토홀릭'","포토홀릭은 중앙대학교 사진아카데미 동문들로 이루어진 사진작가 모임으로써 회원 모두가 한국사진작가협회 소속으로 이미 10여년 동안 정기전시회를 해오고 있습니다. 회원수는 10명입니다.    이번 전시에는 서울 북촌및 서촌 중심의 전통건물 생활모습 자연모습과 더불어 우리나라 한국의 사계절및 전통문양등을 주제로 한 작품전시회를 기획하고자 합니다.  모두 20년 이상 작품활동을 해온 작가들이라 전시공간에 맞는 훌륭한 작품들로 전시를 꾸며 전체 공간을 더욱 빛내리라 생각합니다.   전시 소식은 홈페이지 블로그 페이스북 인스타그램등을 통해 적극 홍보할 예정입니다.   기타 전시에 필요한 사항은 연락 주시면 세부 협의하에 조정해 훌륭한 전시를 만들도록 하겠습니다.   현재 회장을 맡고 있는 본인(유미영)은 북촌 전통한옥 거주자로 지역주민 입니다. 그래서 더욱 북촌 지역에서의 전시를 추진하게 되었습니다.     <참여작가명>  유미영(회장) 김현숙. 심선아 민경장 정응오 이선화 김선영 김순옥 박명자 김미자  * 일부 작가들의 작품을 보실 수있게 첨부하겠습니다.","N","N","N","N","2018-10-29 00:00:00.0","2018-11-11 00:00:00.0"
"60","E003","행복한 스케치 여행의 <그림다반사전> -제 3회-","행복한 스케치 여행","2016년 5월 북촌한옥지원센터에서 실시한 ‘서울스케치여행’프로그램에서 이장희 작가님에게 5회 수업을 받은 일곱 명이 현재까지 한 달에 2회 모여 함께 서울 곳곳의 풍경을 그림에 담는 활동을 하고 있습니다. 서울의 역사와 문화 뿐 아니라 다양한 식물상을 관찰하고 스케치로 기록한 시간을 전시하고자 합니다.","Y","Y","N","Y","2019-09-23 00:00:00.0","2019-09-27 00:00:00.0"
"61","E003","감성수채캘리그라피","캘리라라(동아리)","캘리라라는 송파구에 거주하는 주민들로 아름다운 글과 그림을 사랑하는 모임입니다. 바쁘고 지친 일상을 자연이 선물 한 아름다운 사계절을 주제로 글과 그림을 그리고 쓰며 마음을 힐링하고 회원 서로간의 유대감을 형성하며 친밀한 소통을 목적으로 하며 더나아가서는 재능과 나눔을 통해 지역봉사를 목표로 합니다.","Y","Y","N","Y","2019-11-12 00:00:00.0","2019-11-26 00:00:00.0"
"62","E003","어른을 위한 동화캘리그그라피","캘리라라(동아리)","캘리라라는 송파구에 거주하는 주민들로 아름다운 글과 그림을 사랑하는 모임입니다. 바쁘고 지친 일상을 자연이 선물한 아름다운 사계절을 주제로 글과 그림을 그리고 쓰며 마음을 힐링하고 회원 서로간의 유대감을 형성하며 친밀한 소통을 목적으로 하며 더나아가서는 재능과 나눔을 통해 지역봉사를 목표로 합니다","N","N","N","N","2019-09-18 00:00:00.0","2019-09-28 00:00:00.0"
"65","E003","식물세밀화 보테니컬 아트","프리플로잉","보테니컬아트 세밀화 색연필 스케치를 전시하고자 합니다","N","N","N","N","2019-11-21 00:00:00.0","2019-11-24 00:00:00.0"
"70","E003","test2","test2","test2","N","N","Y","N","2019-09-02 00:00:00.0","2019-09-08 00:00:00.0"
"16","E003","한국전통 보자기아트 전시","한국보자기아트협ㅎ","이윤영  색체의 美: 화려함을 보자기아트에 담다  -  현대상선 직원대상 전통문화체험 보자기아트 강의 -  대우증권 VIP 초청 보자기아트 강사 -  LG 지인 에코스쿨 보자기아트 강의 -  프로에듀/동아사회교육원 보자기아트 강사 -  까르띠에 보자기아트 디자인 -  닥스 보자기아트 선물 포장 -  매일경제신문 ‘쇼핑몰창업성공 CEO’ -  시사오늘 인물 칼럼 ‘보자기아트 디자이너’ 인터뷰 -  아리랑TV ‘Korea Today’ 보자기아트 출연 -  팝콘뉴스 ‘전통 美 살린 보자기아트’ 칼럼 기고 -  경기북부신문 ‘ 보자기아트 디자이너’ 인터뷰 기사 -  아이유 뮤직비디오 ‘밤편지’ 보자기아트 촬영 -  현 보자기꽃 대표 - 신세계그룹 “복을 감싸는 보자기로 신세계그룹     추석선물을 담다” - 중앙일보기사“코리안 럭셔리 보자기가 뜬다” 인터뷰 - SBS 생활경제 TV방송출연 -  현 한국보자기아트협회 회장  ------------------------------------------------------ 전시 4.24~5.5 / 셋팅 4.23 / 철수 5.5","Y","Y","N","Y","2018-04-23 00:00:00.0","2018-05-05 00:00:00.0"
"15","E003","북촌마을서재와 작은쉼터갤러리의 334日","ㅇㅇ","ㅇㅇ","Y","Y","Y","Y","2017-12-12 00:00:00.0","2018-01-31 00:00:00.0"
"19","E003","장애학생 학부모동아리 [한땀한땀] 전통조각보 전시","서울특별시중부교육지원청 특수교육지원센터","첨부파일 참조","Y","Y","N","Y","2018-06-20 00:00:00.0","2018-06-22 00:00:00.0"
"21","E003","test","test","test","N","N","N","N","2018-05-19 00:00:00.0","2018-05-19 00:00:00.0"
"24","E003","주민 커뮤니티전 ‘첫 붓 이야기’","문화다움","문화다움","N","N","N","Y","2018-06-01 00:00:00.0","2018-06-10 00:00:00.0"
"26","E003","주민 큐레이터전 윤금재 ‘한옥 위에 그린 그림","문화다움","문화다움","N","N","N","Y","2018-07-07 00:00:00.0","2018-07-15 00:00:00.0"
"27","E003","시민자율강좌 커뮤니티전 '사군자'","문화다움","문화다움","N","N","N","Y","2018-08-03 00:00:00.0","2018-08-19 00:00:00.0"
"34","E003","행복한 스케치 여행 전시","행복한 스케치여행","지난해에 이어 올해 두번째로 작은갤러리에서 전시회를 열고자 합니다. 한옥지원센터에서 개최한 한옥그리기 수업을 함께 들었던 스케치 동호회 모임입니다. 한 달에 두 번 스케치 모임을 이어오며 매년 전시회를 개최할 예정입니다.","Y","Y","N","Y","2018-11-08 00:00:00.0","2018-11-15 00:00:00.0"
"49","E003","전통문화강좌 커뮤니티전 ‘실용민화'","문화다움","문화다움","Y","Y","N","Y","2019-10-05 00:00:00.0","2019-10-25 00:00:00.0"
"43","E003","북촌풍경스케치-북촌 걸으며 그리다","북촌문화센터 시민자율강좌 북촌풍경스케치","북촌문화센터내에서 2018년부터 시작된 시민자율강좌인 북촌풍경스케치로 2018년 상반기 수업결과물로 8월 한차례 쉼터갤러리에서 전시. 북촌주민들과 함께 수강생들의 자긍심과 북촌에 대한 역사와 이야기를 더 소상히 알게 되어 애향심 충만문화향유의 기회를 갖은 바 하반기와 2019년 상반기 수업결과물로 다시 한번 전시하고 교감하고 소통하는 시간을 갖고자 합니다.","Y","Y","N","Y","2019-05-14 00:00:00.0","2019-05-28 00:00:00.0"
"23","E003","테스트","테스트","ㅇㅇㅇㅇ","N","N","N","N","2018-07-28 00:00:00.0","2018-07-31 00:00:00.0"
"54","E003","채색화 부채전","송채영","파일첨부있습니다","N","N","N","N","2019-07-23 00:00:00.0","2019-07-27 00:00:00.0"
"58","E003","마을강좌(고무판화 전시) / 기획전_커뮤니티전","문화다움","1차 마을강좌 프로그램중 고무판화(리놀룸) 수업 결과물을 전시하기로 함  - 5.21 내부 컨펌완료","Y","Y","N","Y","2019-07-17 00:00:00.0","2019-07-24 00:00:00.0"
"63","E003","식물세밀화 보테니컬 아트","프리플라워","식물세밀화 보테니컬 아트 (색연필 연필 세밀화 전시)","Y","Y","Y","Y","2019-11-28 00:00:00.0","2019-12-01 00:00:00.0"
"75","E003","한옥가방 시리즈전","위주혜","한국 한옥에서 영감을 얻어 제작한 한옥가방 시리즈를 한옥마을의 형태로 전시","Y","Y","N","Y","2019-07-25 00:00:00.0","2019-08-05 00:00:00.0"
"18","E003","북촌창고 소개전","문화다움","ㅇㅇㅇ","Y","Y","Y","Y","2018-04-08 00:00:00.0","2018-04-22 00:00:00.0"
"48","E003","전통문화강좌 커뮤니티전 ‘규방공예'","문화다움","문화다움","Y","Y","N","Y","2019-09-29 00:00:00.0","2019-10-03 00:00:00.0"
"66","E003","수북手북 전시","북촌공예동아리","-단체 프로필 전통공예에 관심이 많은 주부들로 이루어진 북촌공예동아리는 2016년 종로구청 전통공예강좌를 통해 인연을 맺게 되었습니다. 그 후에도 다양한 전통공예강좌를 수강하면서 우리전통공예에 더 깊은 애정을 갖게 되었으며 더 많은 사람들과 전통공예의 아름다움을 공유하고 싶다는 마음으로 모임을 이어가고 있습니다. 2016.11 종로구 전통공예 강사과정(한지 매듭) 수료 2016.12 북촌공예동아리 창립 2017.04~18.10 서울시 보행자거리 체험프로그램 참여 2017.04~12 대학로 마로니에 예술시장 체험프로그램 참여 2017.9~현재 지역 주민들에게 매듭 한지 체험 봉사 2017~현재 종로 진로학습 자유학기제 수업  대신중 사대부중 동성중 세검정초 등 매듭 한지 체험 수업 2017.09 제 4 회  서울 한지문화제  참여 2017.11 계동길 축제 참가 2017.12 한지공예사 1급 교육수료 및 자격증 취득 2018.10 제 5 회  서울 한지문화제  참여 2018.10 북촌공예동아리 회원전 수북手북 전시회  2018.10 계동길 축제 참가 2019.4~6 서울여성공예센터 감고당길 공예마켓 체험프로그램 참여  -세부콘텐츠 내용 지난 18년 첫 수부수북 전시회에서 다소 멀고 어렵게 느껴졌던 전통공예를 평범한 주부들의 작품으로 가깝고 친숙하게 느끼게 되었다고 생각합니다. 올해는“종로구 평생학습동아리사업”을 통하여 전통매듭 심화수업을 진행합니다. 기존에 만든 작품과 함께 심화수업에서 만드는 작품을 두번째 수북수북 전시회를 통해서 선보이려고합니다. 8명의 회원들이 작년보다 한층 더 전문적인 작품으로 전시를 할 수 있을 것입니다.","N","N","Y","N","2019-11-19 00:00:00.0","2019-11-26 00:00:00.0"
"68","E003","감성수채캘리그라피천아트","캘리라라","감정이 담긴 수채캘리그라피와 천아트의 콜라보 전시회 입니다","N","N","N","N","2019-09-18 00:00:00.0","2019-09-28 00:00:00.0"
"52","E003","공공한옥3개소 2018 아카이브전","문화다움","공공한옥3개소 2018 아카이브전 - 담당 : 전수린 셋팅 : 3/19(화) 전시 : 3/20(수)~3/30(토) 철수 : 3/30(토) 오후2시 이후","Y","Y","N","Y","2019-03-20 00:00:00.0","2019-03-30 00:00:00.0"
"5","E003","000","222222888","99999","N","N","N","N","2017-03-12 00:00:00.0","2017-03-14 00:00:00.0"
"33","E003","주민 커뮤니티전 '내가 그린 그림'","문화다움","문화다움","N","N","N","Y","2018-10-17 00:00:00.0","2018-10-21 00:00:00.0"
"40","E003","달개비 전시회-생태드로잉","달개비","달개비는 생태드로잉 모임입니다 서울시 50+에서 수업을 시작으로 그림을 그리기 시작하였으며 수업 이 끝난 후에도 2년 째 주1회 만나 그림을 그리는 모임입니다.  - 전시일정이 겹치는 관계로 하반기에 신청하기로 함.","Y","Y","N","N","2019-04-01 00:00:00.0","2019-04-08 00:00:00.0"
"6","E003","000","222222888","99999","N","N","N","N","2017-03-12 00:00:00.0","2017-03-14 00:00:00.0"
"45","E003","전통문화강좌 커뮤니티전 ‘한복인형퀼트'","문화다움","문화다움","Y","Y","N","Y","2019-04-03 00:00:00.0","2019-04-15 00:00:00.0"
"37","E003","북촌다움이 결과展","문화다움","문화다움","N","Y","N","Y","2018-11-26 00:00:00.0","2018-12-29 00:00:00.0"