"서비스구분","서비스ID","대분류명","소분류명","서비스상태","서비스명","결제방법","장소명","서비스대상","바로가기URL","장소X좌표","장소Y좌표","서비스개시시작일시","서비스개시종료일시","접수시작일시","접수종료일시","지역명"
"자체","S191226093704730954","시설대관","다목적실","접수중","2020년 양천구 신월3동자치회관 다목적실","유료","신월3동자치회관","제한없음","http://yeyak.seoul.go.kr/reservation/view.web?rsvsvcid=S191226093704730954","37.533630399802306","126.82908115200797","2020-01-02 00:00:00.0","2020-12-31 00:00:00.0","2020-01-02 09:00:00.0","2020-12-27 18:00:00.0","양천구"
"자체","S191224104227454540","시설대관","강의실","접수중","2020년 양천구 목2동자치회관 문화창작실","유료","목2동자치회관","제한없음","http://yeyak.seoul.go.kr/reservation/view.web?rsvsvcid=S191224104227454540","37.54614341156294","126.87170002271812","2020-01-02 00:00:00.0","2020-12-31 00:00:00.0","2020-01-02 00:00:00.0","2020-12-27 23:00:00.0","양천구"
"자체","S191224112019476551","시설대관","강의실","접수중","2020년 양천구 목2동자치회관 취미교실","유료","목2동자치회관","제한없음","http://yeyak.seoul.go.kr/reservation/view.web?rsvsvcid=S191224112019476551","37.54614341156294","126.87170002271812","2020-01-02 00:00:00.0","2020-12-31 00:00:00.0","2020-01-02 09:00:00.0","2020-12-27 23:00:00.0","양천구"
"자체","S191224151544409437","시설대관","강당","접수중","2020년 양천구 목5동자치회관 목마홀","유료","목5동 자치회관","제한없음","http://yeyak.seoul.go.kr/reservation/view.web?rsvsvcid=S191224151544409437","37.53718352231085","126.88171745359833","2020-01-02 00:00:00.0","2020-12-31 00:00:00.0","2020-01-02 09:00:00.0","2020-12-27 18:00:00.0","양천구"
"자체","S191224153022450292","시설대관","기타","접수중","2020년 양천구 목5동주민센터 북카페","무료","목5동 자치회관","제한없음","http://yeyak.seoul.go.kr/reservation/view.web?rsvsvcid=S191224153022450292","37.53718352231085","126.88171745359833","2020-01-02 00:00:00.0","2020-12-31 00:00:00.0","2020-01-02 09:00:00.0","2020-12-27 18:00:00.0","양천구"
"자체","S191227134342124608","시설대관","강의실","접수중","2020년 양천구 목5동자치회관 취미교실2","유료","목5동 자치회관","제한없음","http://yeyak.seoul.go.kr/reservation/view.web?rsvsvcid=S191227134342124608","37.53718352231085","126.88171745359833","2020-01-02 00:00:00.0","2020-12-31 00:00:00.0","2020-01-02 09:00:00.0","2020-12-27 18:00:00.0","양천구"
"자체","S191227134858982848","시설대관","강의실","접수중","2020년 양천구 목5동자치회관 취미교실3","유료","목5동 자치회관","제한없음","http://yeyak.seoul.go.kr/reservation/view.web?rsvsvcid=S191227134858982848","37.53718352231085","126.88171745359833","2020-01-02 00:00:00.0","2020-12-31 00:00:00.0","2020-01-02 09:00:00.0","2020-12-27 18:00:00.0","양천구"
"자체","S191227112710858663","시설대관","강당","접수중","2020년 양천구 나눔누리센터 강당","유료(요금안내문의)","나눔누리센터","제한없음(상세보기참조)","http://yeyak.seoul.go.kr/reservation/view.web?rsvsvcid=S191227112710858663","37.51890151695658","126.85374733465481","2020-01-02 00:00:00.0","2020-12-31 00:00:00.0","2020-01-02 00:00:00.0","2020-12-27 00:00:00.0","양천구"
"자체","S191226102134920750","시설대관","회의실","접수중","2020년 양천구 신월5동자치회관 소회의실","유료","신월5동 자치회관","제한없음","http://yeyak.seoul.go.kr/reservation/view.web?rsvsvcid=S191226102134920750","37.538583120913565","126.82717349185977","2020-01-02 00:00:00.0","2020-12-31 00:00:00.0","2020-01-02 09:00:00.0","2020-12-27 18:00:00.0","양천구"
"자체","S191226102929303307","시설대관","기타","접수중","2020년 양천구 신월5동자치회관 방아다리쉼터","무료","신월5동 자치회관","제한없음","http://yeyak.seoul.go.kr/reservation/view.web?rsvsvcid=S191226102929303307","37.538583120913565","126.82717349185977","2020-01-02 00:00:00.0","2020-12-31 00:00:00.0","2020-01-02 09:00:00.0","2020-12-27 18:00:00.0","양천구"
"자체","S191226103722518105","시설대관","강의실","접수중","2020년 양천구 신월5동자치회관 취미교실","유료","신월5동 자치회관","제한없음","http://yeyak.seoul.go.kr/reservation/view.web?rsvsvcid=S191226103722518105","37.538583120913565","126.82717349185977","2020-01-02 00:00:00.0","2020-12-31 00:00:00.0","2020-01-02 09:00:00.0","2020-12-27 18:00:00.0","양천구"
"자체","S191224110106762832","시설대관","주민사랑방","접수중","2020년 양천구 목2동자치회관 어울림사랑방","무료","목2동자치회관>목2동 어울림쉼터","제한없음","http://yeyak.seoul.go.kr/reservation/view.web?rsvsvcid=S191224110106762832","37.545398130313195","126.871557023429","2020-01-02 00:00:00.0","2020-12-31 00:00:00.0","2020-01-02 00:00:00.0","2020-12-27 23:00:00.0","양천구"
"자체","S191227090040460733","시설대관","다목적실","접수중","2020년 양천구 신정2동자치회관 다목적홀","유료","신정2동 자치회관","제한없음","http://yeyak.seoul.go.kr/reservation/view.web?rsvsvcid=S191227090040460733","37.519213188200986","126.87067378257849","2020-01-02 00:00:00.0","2020-12-31 00:00:00.0","2020-01-02 09:00:00.0","2020-12-27 18:00:00.0","양천구"
"자체","S191227091257019881","시설대관","강의실","접수중","2020년 양천구 신정2동자치회관 제1강의실","유료","신정2동 자치회관","제한없음","http://yeyak.seoul.go.kr/reservation/view.web?rsvsvcid=S191227091257019881","37.519213188200986","126.87067378257849","2020-01-02 00:00:00.0","2020-12-31 00:00:00.0","2020-01-02 09:00:00.0","2020-12-27 18:00:00.0","양천구"
"자체","S191227093703973213","시설대관","강의실","접수중","2020년 양천구 신정2동자치회관 지하강의실","유료","신정2동 자치회관","제한없음","http://yeyak.seoul.go.kr/reservation/view.web?rsvsvcid=S191227093703973213","37.519213188200986","126.87067378257849","2020-01-02 00:00:00.0","2020-12-31 00:00:00.0","2020-01-02 09:00:00.0","2020-12-27 18:00:00.0","양천구"
"자체","S191226160156032024","시설대관","강의실","접수중","2020년 양천구 신월7동자치회관 강의실","유료","신월7동자치회관","제한없음","http://yeyak.seoul.go.kr/reservation/view.web?rsvsvcid=S191226160156032024","37.52188215213267","126.83470978209404","2020-01-02 00:00:00.0","2020-12-31 00:00:00.0","2020-01-02 09:00:00.0","2020-12-27 18:00:00.0","양천구"
"자체","S191226161057390654","시설대관","다목적실","접수중","2020년 양천구 신월7동자치회관 다목적실","유료","신월7동자치회관","제한없음","http://yeyak.seoul.go.kr/reservation/view.web?rsvsvcid=S191226161057390654","37.52188215213267","126.83470978209404","2020-01-02 00:00:00.0","2020-12-31 00:00:00.0","2020-01-02 09:00:00.0","2020-12-27 18:00:00.0","양천구"
"자체","S191226162415062018","시설대관","주민사랑방","접수중","2020년 양천구 신월7동자치회관 해맞이공방 ","무료","신월7동자치회관","제한없음","http://yeyak.seoul.go.kr/reservation/view.web?rsvsvcid=S191226162415062018","37.52188215213267","126.83470978209404","2020-01-02 00:00:00.0","2020-12-31 00:00:00.0","2020-01-02 09:00:00.0","2020-12-27 18:00:00.0","양천구"
"자체","S191226095527422342","시설대관","강의실","접수중","2020년 양천구 신월4동자치회관 문화강의실","유료","신월4동 자치회관","제한없음","http://yeyak.seoul.go.kr/reservation/view.web?rsvsvcid=S191226095527422342","37.5246970658026","126.84007935607524","2020-01-02 00:00:00.0","2020-12-31 00:00:00.0","2020-01-02 09:00:00.0","2020-12-27 18:00:00.0","양천구"
"자체","S191226100234387487","시설대관","회의실","접수중","2020년 양천구 신월4동자치회관 소회의실","유료","신월4동 자치회관","제한없음","http://yeyak.seoul.go.kr/reservation/view.web?rsvsvcid=S191226100234387487","37.5246970658026","126.84007935607524","2020-01-02 00:00:00.0","2020-12-31 00:00:00.0","2020-01-02 09:00:00.0","2020-12-27 18:00:00.0","양천구"
"자체","S191226100814163130","시설대관","기타","접수중","2020년 양천구 신월4동자치회관 어울림카페","무료","신월4동 자치회관","제한없음","http://yeyak.seoul.go.kr/reservation/view.web?rsvsvcid=S191226100814163130","37.5246970658026","126.84007935607524","2020-01-02 00:00:00.0","2020-12-31 00:00:00.0","2020-01-02 09:00:00.0","2020-12-27 18:00:00.0","양천구"
"자체","S191227100847291983","시설대관","강의실","접수중","2020년 양천구 신정4동자치회관 1강의실","유료","신정4동자치회관","제한없음","http://yeyak.seoul.go.kr/reservation/view.web?rsvsvcid=S191227100847291983","37.524558734945536","126.8558042457072","2020-01-02 00:00:00.0","2020-12-31 00:00:00.0","2020-01-02 09:00:00.0","2020-12-27 18:00:00.0","양천구"
"자체","S191227101914589562","시설대관","기타","접수중","2020년 양천구 신정4동자치회관 도예교실","유료","신정4동자치회관","제한없음","http://yeyak.seoul.go.kr/reservation/view.web?rsvsvcid=S191227101914589562","37.524558734945536","126.8558042457072","2020-01-02 00:00:00.0","2020-12-31 00:00:00.0","2020-01-02 09:00:00.0","2020-12-27 18:00:00.0","양천구"
"자체","S191227103539163822","시설대관","기타","접수중","2020년 양천구 신정4동자치회관 열린마루","유료","신정4동자치회관","제한없음","http://yeyak.seoul.go.kr/reservation/view.web?rsvsvcid=S191227103539163822","37.524558734945536","126.8558042457072","2020-01-02 00:00:00.0","2020-12-31 00:00:00.0","2020-01-02 09:00:00.0","2020-12-27 18:00:00.0","양천구"
"자체","S191227104001597103","시설대관","강당","접수중","2020년 양천구 신정4동자치회관 은행정홀(대강당)","유료","신정4동자치회관","제한없음","http://yeyak.seoul.go.kr/reservation/view.web?rsvsvcid=S191227104001597103","37.524558734945536","126.8558042457072","2020-01-02 00:00:00.0","2020-12-31 00:00:00.0","2020-01-02 09:00:00.0","2020-12-27 18:00:00.0","양천구"
"자체","S191227104619079648","시설대관","다목적실","접수중","2020년 양천구 신정6동 자치회관 다목적홀","유료","신정6동자치회관","제한없음(서울시 관련시민 - 상세정보 확인)","http://yeyak.seoul.go.kr/reservation/view.web?rsvsvcid=S191227104619079648","37.51705814824047","126.86438829216877","2020-01-02 00:00:00.0","2020-12-31 00:00:00.0","2020-01-02 09:00:00.0","2020-12-27 18:00:00.0","양천구"
"자체","S191227105325744444","시설대관","주민사랑방","접수중","2020년 양천구 신정6동자치회관 자치사랑방","무료","신정6동자치회관","제한없음","http://yeyak.seoul.go.kr/reservation/view.web?rsvsvcid=S191227105325744444","37.51705814824047","126.86438829216877","2020-01-02 00:00:00.0","2020-12-31 00:00:00.0","2020-01-02 09:00:00.0","2020-12-27 18:00:00.0","양천구"
"자체","S191227105837510519","시설대관","강의실","접수중","2020년 양천구 신정6동자치회관 제1강의실","유료","신정6동자치회관","제한없음(서울시관련시민 - 상세정보 확인)","http://yeyak.seoul.go.kr/reservation/view.web?rsvsvcid=S191227105837510519","37.51705814824047","126.86438829216877","2020-01-02 00:00:00.0","2020-12-31 00:00:00.0","2020-01-02 09:00:00.0","2020-12-27 18:00:00.0","양천구"
"자체","S200102091811172581","시설대관","강당","접수중","2020년 양천구 목1동자치회관 대강당","유료","목1동자치회관","제한없음","http://yeyak.seoul.go.kr/reservation/view.web?rsvsvcid=S200102091811172581","37.5303645482541","126.87118853037587","2020-01-02 00:00:00.0","2020-12-31 00:00:00.0","2020-01-02 09:00:00.0","2020-12-27 18:00:00.0","양천구"
"자체","S200102095121373432","시설대관","강의실","접수중","2020년 양천구 목1동자치회관 제1강의실","유료","목1동자치회관","제한없음","http://yeyak.seoul.go.kr/reservation/view.web?rsvsvcid=S200102095121373432","37.5303645482541","126.87118853037587","2020-01-02 00:00:00.0","2020-12-31 00:00:00.0","2020-01-02 09:00:00.0","2020-12-27 18:00:00.0","양천구"
"자체","S191226163006141977","시설대관","강당","접수중","2020년 양천구 신정1동자치회관 대강당","유료","신정1동 자치회관","제한없음","http://yeyak.seoul.go.kr/reservation/view.web?rsvsvcid=S191226163006141977","37.51857061433107","126.85428642000242","2020-01-02 00:00:00.0","2020-12-31 00:00:00.0","2020-01-02 09:00:00.0","2020-12-27 18:00:00.0","양천구"
"자체","S191226170942660213","시설대관","강의실","접수중","2020년 양천구 신정1동자치회관 동아리방","유료","신정1동 자치회관","제한없음","http://yeyak.seoul.go.kr/reservation/view.web?rsvsvcid=S191226170942660213","37.51857061433107","126.85428642000242","2020-01-02 00:00:00.0","2020-12-31 00:00:00.0","2020-01-02 09:00:00.0","2020-12-27 18:00:00.0","양천구"
"자체","S191226171649712695","시설대관","강의실","접수중","2020년 양천구 신정1동자치회관 취미교실1 (2층)","유료","신정1동 자치회관","제한없음","http://yeyak.seoul.go.kr/reservation/view.web?rsvsvcid=S191226171649712695","37.51857061433107","126.85428642000242","2020-01-02 00:00:00.0","2020-12-31 00:00:00.0","2020-01-02 09:00:00.0","2020-12-27 18:00:00.0","양천구"
"자체","S191226172851567951","시설대관","강의실","접수중","2020년 양천구 신정1동자치회관 취미교실2 (3층)","유료","신정1동 자치회관","제한없음","http://yeyak.seoul.go.kr/reservation/view.web?rsvsvcid=S191226172851567951","37.51857061433107","126.85428642000242","2020-01-02 00:00:00.0","2020-12-31 00:00:00.0","2020-01-02 09:00:00.0","2020-12-27 18:00:00.0","양천구"
"자체","S191227110900201766","시설대관","강의실","접수중","2020년 양천구 신정7동자치회관 강의실","유료","신정7동 자치회관","제한없음","http://yeyak.seoul.go.kr/reservation/view.web?rsvsvcid=S191227110900201766","37.51440008334436","126.85966957566812","2020-01-02 00:00:00.0","2020-12-31 00:00:00.0","2020-01-02 09:00:00.0","2020-12-27 18:00:00.0","양천구"
"자체","S191227112033787649","시설대관","다목적실","접수중","2020년 양천구 신정7동자치회관 다목적홀","유료","신정7동 자치회관","제한없음","http://yeyak.seoul.go.kr/reservation/view.web?rsvsvcid=S191227112033787649","37.51440008334436","126.85966957566812","2020-01-02 00:00:00.0","2020-12-31 00:00:00.0","2020-01-02 09:00:00.0","2020-12-27 18:00:00.0","양천구"
"자체","S191227094949988860","시설대관","강당","접수중","2020년 양천구 신정3동자치회관 강당","유료","신정3동 자치회관","제한없음","http://yeyak.seoul.go.kr/reservation/view.web?rsvsvcid=S191227094949988860","37.51514742485221","126.85479077037304","2020-01-02 00:00:00.0","2020-12-31 00:00:00.0","2020-01-02 09:00:00.0","2020-12-27 18:00:00.0","양천구"
"자체","S191227095722234552","시설대관","강의실","접수중","2020년 양천구 신정3동자치회관 강의실","유료","신정3동 자치회관","제한없음","http://yeyak.seoul.go.kr/reservation/view.web?rsvsvcid=S191227095722234552","37.51514742485221","126.85479077037304","2020-01-02 00:00:00.0","2020-12-31 00:00:00.0","2020-01-02 09:00:00.0","2020-12-27 18:00:00.0","양천구"
"자체","S200122141142474725","시설대관","주민사랑방","접수중","2020년 신정3동자치회관 북카페","무료","신정3동 자치회관","제한없음","http://yeyak.seoul.go.kr/reservation/view.web?rsvsvcid=S200122141142474725","37.51514742485221","126.85479077037304","2020-01-22 00:00:00.0","2020-12-31 00:00:00.0","2020-01-22 09:00:00.0","2020-12-31 17:00:00.0","양천구"
"자체","S191227094443076940","시설대관","강의실","접수중","2020년 양천구 신정3동 넓은들민원센터(자치회관) 강의실","유료","신정3동 넓은들민원센터(신정3동자치회관)","제한없음","http://yeyak.seoul.go.kr/reservation/view.web?rsvsvcid=S191227094443076940","37.51143264033747","126.84151470886484","2020-01-02 00:00:00.0","2020-12-31 00:00:00.0","2020-01-02 09:00:00.0","2020-12-27 18:00:00.0","양천구"
"자체","S200102092839715505","시설대관","다목적실","접수중","2020년 양천구 신월2동자치회관 다목적홀","유료","신월2동 자치회관>신월2동 자치회관","제한없음","http://yeyak.seoul.go.kr/reservation/view.web?rsvsvcid=S200102092839715505","37.524973358328765","126.8445676534553","2020-01-02 00:00:00.0","2020-12-31 00:00:00.0","2020-01-02 09:00:00.0","2020-12-27 18:00:00.0","양천구"
"자체","S200102093432237827","시설대관","강의실","접수중","2020년 양천구 신월2동자치회관 제2강의실","유료","신월2동 자치회관>신월2동 자치회관","제한없음","http://yeyak.seoul.go.kr/reservation/view.web?rsvsvcid=S200102093432237827","37.524973358328765","126.8445676534553","2020-01-02 00:00:00.0","2020-12-31 00:00:00.0","2020-01-02 09:00:00.0","2020-12-27 18:00:00.0","양천구"
"자체","S200102093924173041","시설대관","강의실","접수중","2020년 양천구 신월2동자치회관 제3강의실","유료","신월2동 자치회관>신월2동 자치회관","제한없음","http://yeyak.seoul.go.kr/reservation/view.web?rsvsvcid=S200102093924173041","37.524973358328765","126.8445676534553","2020-01-02 00:00:00.0","2020-12-31 00:00:00.0","2020-01-02 09:00:00.0","2020-12-27 18:00:00.0","양천구"
"자체","S191226112412944572","시설대관","강당","접수중","2020년 양천구 신월6동 임시청사 자치회관 대강당","유료","신월6동 자치회관","제한없음","http://yeyak.seoul.go.kr/reservation/view.web?rsvsvcid=S191226112412944572","37.5145457628","126.8409606665","2020-01-02 00:00:00.0","2020-12-31 00:00:00.0","2020-01-02 09:00:00.0","2020-12-27 18:00:00.0","양천구"
"자체","S191226154554614158","시설대관","주민사랑방","접수중","2020년 양천구 신월6동 임시청사 자치회관 사랑방","유료","신월6동 자치회관","제한없음","http://yeyak.seoul.go.kr/reservation/view.web?rsvsvcid=S191226154554614158","37.5145457628","126.8409606665","2020-01-02 00:00:00.0","2020-12-31 00:00:00.0","2020-01-02 09:00:00.0","2020-12-27 18:00:00.0","양천구"
"자체","S191226155026314802","시설대관","회의실","접수중","2020년 양천구 신월6동 임시청사 자치회관 회의실","유료","신월6동 자치회관","제한없음","http://yeyak.seoul.go.kr/reservation/view.web?rsvsvcid=S191226155026314802","37.5145457628","126.8409606665","2020-01-02 00:00:00.0","2020-12-31 00:00:00.0","2020-01-02 09:00:00.0","2020-12-27 18:00:00.0","양천구"
"자체","S191224141714278850","시설대관","다목적실","접수중","2020년 양천구 목3동 자치회관 다목적홀","유료","목3동자치회관","제한없음","http://yeyak.seoul.go.kr/reservation/view.web?rsvsvcid=S191224141714278850","37.54474055185033","126.86443774153076","2020-01-02 00:00:00.0","2020-12-31 00:00:00.0","2020-01-02 00:00:00.0","2020-12-27 23:00:00.0","양천구"
"자체","S191224143129082767","시설대관","강의실","접수중","2020년 양천구 목3동자치회관 배움터3(강의실)","유료","목3동자치회관","제한없음","http://yeyak.seoul.go.kr/reservation/view.web?rsvsvcid=S191224143129082767","37.54474055185033","126.86443774153076","2020-01-02 00:00:00.0","2020-12-31 00:00:00.0","2020-01-02 00:00:00.0","2020-12-27 23:00:00.0","양천구"
"자체","S191224140054604212","시설대관","기타","접수중","2020년 양천구 목2동자치회관 용왕산 숲속활력소","무료","목2동 용왕산 숲속활력소","제한없음","http://yeyak.seoul.go.kr/reservation/view.web?rsvsvcid=S191224140054604212","37.54343913930559","126.87728094212132","2020-01-02 00:00:00.0","2020-12-31 00:00:00.0","2020-01-02 00:00:00.0","2020-12-27 23:00:00.0","양천구"
"자체","S191226094854724610","시설대관","기타","접수중","2020년 양천구 신월3동자치회관 사랑의 정(情) 나눔 마루","무료","신월3동자치회관>사랑의 정(情) 나눔마루(신월3동자치회관)","제한없음","http://yeyak.seoul.go.kr/reservation/view.web?rsvsvcid=S191226094854724610","37.532076815436824","126.82890141394472","2020-01-02 00:00:00.0","2020-12-31 00:00:00.0","2020-01-02 09:00:00.0","2020-12-27 18:00:00.0","양천구"
"자체","S191224173406071454","시설대관","다목적실","접수중","2020년 양천구 신월1동자치회관 다목적홀","유료","신월1동자치회관","제한없음","http://yeyak.seoul.go.kr/reservation/view.web?rsvsvcid=S191224173406071454","37.53280499406471","126.83152683820374","2020-01-02 00:00:00.0","2020-12-31 00:00:00.0","2020-01-02 09:00:00.0","2020-12-27 18:00:00.0","양천구"
"자체","S191224174237261445","시설대관","강의실","접수중","2020년 양천구 신월1동자치회관 2층강의실","유료","신월1동자치회관","제한없음","http://yeyak.seoul.go.kr/reservation/view.web?rsvsvcid=S191224174237261445","37.53280499406471","126.83152683820374","2020-01-02 00:00:00.0","2020-12-31 00:00:00.0","2020-01-02 09:00:00.0","2020-12-27 18:00:00.0","양천구"
"자체","S191224150143011184","시설대관","회의실","접수중","2020년 양천구 목4동자치회관 지하회의실","유료","목4동자치회관","제한없음","http://yeyak.seoul.go.kr/reservation/view.web?rsvsvcid=S191224150143011184","37.53243377242128","126.86839723912246","2020-01-02 00:00:00.0","2020-12-31 00:00:00.0","2020-01-02 09:00:00.0","2020-12-27 18:00:00.0","양천구"
"자체","S191224150838969504","시설대관","강의실","접수중","2020년 양천구 목4동자치회관 취미교실","유료","목4동자치회관","제한없음","http://yeyak.seoul.go.kr/reservation/view.web?rsvsvcid=S191224150838969504","37.53243377242128","126.86839723912246","2020-01-02 00:00:00.0","2020-12-31 00:00:00.0","2020-01-02 09:00:00.0","2020-12-27 18:00:00.0","양천구"