"키","명칭","행정 시","행정 구","행정 동"
"BE_IW08-0001","Seoul Children's Grand Park Zoo","Seoul","Gwangjin-gu","Neung-dong"
"BE_IW08-0002","World Reptilia Park","Seoul","Gwangjin-gu","Neung-dong"
"BE_IW08-0003","Monkey School","Seoul","Gangnam-gu","Samseong1-dong"
"BE_IW08-0004","Elephant Zoo","Seoul","Gwangjin-gu","Neung-dong"
"BE_IW08-0005","Insect Botanic Garden","Seoul","Seongdong-gu","Seongsu1ga1-dong"
"BE_IW08-0006","Gwanaksan Mountain the outside Botanic Garden","Seoul","Gwanak-gu","Daehak-dong"
"BE_IW08-0007","Kumgang orchid Botanic Garden","Seoul","Gangdong-gu","Gil-dong"
"BE_IW08-0008","Kumnan landscape flower Botanic Garden","Seoul","Dobong-gu","Banghak3-dong"
"BE_IW08-0009","Namsan Mountain the outside Botanic Garden","Seoul","Yongsan-gu","Huam-dong"
"BE_IW08-0010","Namsan Mountain the outside Botanic Garden","Seoul","Yongsan-gu","Itaewon2-dong"
"BE_IW08-0011","Milim Botanic Garden","Seoul","Seocho-gu","Yangjae1-dong"
"BE_IW08-0012","Dandelion Botanic Garden","Seoul","Seocho-gu","Naegok-dong"
"BE_IW08-0013","Botanical Garden","Seoul","Gwangjin-gu","Neung-dong"
"BE_IW08-0014","Ilkwang Botanic Garden","Seoul","Songpa-gu","Ogeum-dong"
"BE_IW08-0015","Jeil Arboretum","Seoul","Songpa-gu","Oryun-dong"
"BE_IW08-0016","CheongAh Botanic Garden","Seoul","Seocho-gu","Yangjae2-dong"
"BE_IW08-0017","Blue Arboretum","Seoul","Guro-gu","Oryu2-dong"
"BE_IW08-0018","Halla Botanical Garden","Seoul","Gangdong-gu","Dunchon2-dong"
"BE_IW08-0019","Hanbaek Botanic Garden","Seoul","Seocho-gu","Naegok-dong"
"BE_IW08-0020","Hongneung Arboretum","Seoul","Dongdaemun-gu","Cheongnyangni-dong"
"BE_IW08-0021","Seunghwa Arboretum","Seoul","Seocho-gu","Naegok-dong"