"서비스구분","서비스ID","대분류명","소분류명","서비스상태","서비스명","결제방법","장소명","서비스대상","바로가기URL","장소X좌표","장소Y좌표","서비스개시시작일시","서비스개시종료일시","접수시작일시","접수종료일시","지역명"
"Current System","S140125140023317380","Gyms","Tennis court","Book pause","Tennis Court 1 (weekdays) - Eungbong Park","a charge","Eungbong Park","제한없음","http://yeyak.seoul.go.kr/reservation/view.web?rsvsvcid=S140125140023317380","37.5569473910838","127.02182026085195","2014-03-01 00:00:00.0","2022-12-31 00:00:00.0","2020-05-01 09:00:00.0","2022-12-31 18:00:00.0","Sungdong"
"Current System","S140125140924738603","Gyms","Tennis court","Book pause","Tennis court 2 (weekdays) - Eungbong Park","a charge","Eungbong Park","제한없음","http://yeyak.seoul.go.kr/reservation/view.web?rsvsvcid=S140125140924738603","37.5569473910838","127.02182026085195","2014-03-01 00:00:00.0","2022-12-31 00:00:00.0","2020-05-01 09:00:00.0","2022-12-31 18:00:00.0","Sungdong"
"Current System","S140125141714188670","Gyms","Tennis court","Book pause","Tennis court 1 (weekend/holiday) - Eungbong Park","a charge","Eungbong Park","제한없음","http://yeyak.seoul.go.kr/reservation/view.web?rsvsvcid=S140125141714188670","37.5569473910838","127.02182026085195","2014-03-01 00:00:00.0","2022-12-31 00:00:00.0","2020-05-01 09:00:00.0","2022-12-31 18:00:00.0","Sungdong"
"Current System","S140125142346333973","Gyms","Tennis court","Book pause","Tennis Court 2 (weekend/holiday) - Eungbong Park","a charge","Eungbong Park","제한없음","http://yeyak.seoul.go.kr/reservation/view.web?rsvsvcid=S140125142346333973","37.5569473910838","127.02182026085195","2014-03-01 00:00:00.0","2022-12-31 00:00:00.0","2020-05-01 09:00:00.0","2022-12-31 18:00:00.0","Sungdong"
"Current System","S140203093637747819","Gyms","Stadium","Book pause","Multipurpose park","a free","Eungbong Park","제한없음","http://yeyak.seoul.go.kr/reservation/view.web?rsvsvcid=S140203093637747819","37.5569473910838","127.02182026085195","2014-02-03 00:00:00.0","2022-12-31 00:00:00.0","2020-05-01 09:00:00.0","2022-12-31 18:00:00.0","Sungdong"
"Current System","S191110165039438027","Facilities Rental","Recording/Filming","Book pause","2020 Filming 1(Day time)","a charge","Gangseo Hangang Park ","제한없음","http://yeyak.seoul.go.kr/reservation/view.web?rsvsvcid=S191110165039438027","","","2019-12-01 00:00:00.0","2020-12-31 00:00:00.0","2019-12-01 00:00:00.0","2020-12-31 00:00:00.0","Gangseo"
"Current System","S191110171323657178","Facilities Rental","Recording/Filming","Book pause","2020Filming 1(Night time)","a charge","Film Shooting Spot","제한없음","http://yeyak.seoul.go.kr/reservation/view.web?rsvsvcid=S191110171323657178","","","2019-12-01 00:00:00.0","2020-12-31 00:00:00.0","2019-12-01 00:00:00.0","2020-12-31 00:00:00.0","Gangseo"
"Current System","S191111194911600806","Facilities Rental","Recording/Filming","Book pause","2020 Recording 1","a charge","Gangseo Hangang Park ","제한없음","http://yeyak.seoul.go.kr/reservation/view.web?rsvsvcid=S191111194911600806","","","2019-12-01 00:00:00.0","2020-12-31 00:00:00.0","2019-12-01 00:00:00.0","2020-12-31 00:00:00.0","Gangseo"
"Current System","S191111200540365471","Facilities Rental","Recording/Filming","Book pause","2020 Filming 1(Day time)","a charge","Gwangnaru Hangang Park ","제한없음","http://yeyak.seoul.go.kr/reservation/view.web?rsvsvcid=S191111200540365471","37.54996645867258","127.12224993918046","2019-12-01 00:00:00.0","2020-12-31 00:00:00.0","2019-12-01 00:00:00.0","2020-12-31 00:00:00.0","Gangdong"
"Current System","S191111200902481295","Facilities Rental","Recording/Filming","Book pause","2020 Filming 1(Night time)","a charge","Gwangnaru Hangang Park ","제한없음","http://yeyak.seoul.go.kr/reservation/view.web?rsvsvcid=S191111200902481295","37.54996645867258","127.12224993918046","2019-12-01 00:00:00.0","2020-12-31 00:00:00.0","2019-12-01 00:00:00.0","2020-12-31 00:00:00.0","Gangdong"
"Current System","S191111201232976013","Facilities Rental","Recording/Filming","Book pause","2020 Recording 1","a charge","Gwangnaru Hangang Park ","제한없음","http://yeyak.seoul.go.kr/reservation/view.web?rsvsvcid=S191111201232976013","37.54996645867258","127.12224993918046","2019-12-01 00:00:00.0","2020-12-31 00:00:00.0","2019-12-01 00:00:00.0","2020-12-31 00:00:00.0","Gangdong"
"Current System","S191111202516763599","Facilities Rental","Recording/Filming","Book pause","2020 Filming 1(Day time)","a charge","Nanji Information Center","제한없음","http://yeyak.seoul.go.kr/reservation/view.web?rsvsvcid=S191111202516763599","37.5628367851","126.8854210503","2019-12-01 00:00:00.0","2020-12-31 00:00:00.0","2019-12-01 00:00:00.0","2020-12-31 00:00:00.0","Mapo"
"Current System","S191111203333902683","Facilities Rental","Recording/Filming","Book pause","2020 Filming 1(Night time)","a charge","Nanji Information Center","제한없음","http://yeyak.seoul.go.kr/reservation/view.web?rsvsvcid=S191111203333902683","37.5628367851","126.8854210503","2019-12-01 00:00:00.0","2020-12-31 00:00:00.0","2019-12-01 00:00:00.0","2020-12-31 00:00:00.0","Mapo"
"Current System","S191111203718886380","Facilities Rental","Recording/Filming","Book pause","2020 Recording 1","a charge","Nanji Hangang Park ","제한없음","http://yeyak.seoul.go.kr/reservation/view.web?rsvsvcid=S191111203718886380","37.56283678511617","126.88542105032526","2019-12-01 00:00:00.0","2020-12-31 00:00:00.0","2019-12-01 00:00:00.0","2020-12-31 00:00:00.0","Mapo"
"Current System","S191111204616171871","Facilities Rental","Recording/Filming","Book pause","2020 Filming 1(Day time)","a charge","Ttukseom Hangang Park ","제한없음","http://yeyak.seoul.go.kr/reservation/view.web?rsvsvcid=S191111204616171871","37.52936286135093","127.07397601338304","2019-12-01 00:00:00.0","2020-12-31 00:00:00.0","2019-12-01 00:00:00.0","2020-12-31 00:00:00.0","Gwangjin"
"Current System","S191111204836686468","Facilities Rental","Recording/Filming","Book pause","2020 Filming 1(Night time)","a charge","Ttukseom Hangang Park ","제한없음","http://yeyak.seoul.go.kr/reservation/view.web?rsvsvcid=S191111204836686468","37.52936286135093","127.07397601338304","2019-12-01 00:00:00.0","2020-12-31 00:00:00.0","2019-12-01 00:00:00.0","2020-12-31 00:00:00.0","Gwangjin"
"Current System","S191111205231141408","Facilities Rental","Recording/Filming","Book pause","2020 Recording 1","a charge","Ttukseom Hangang Park ","제한없음","http://yeyak.seoul.go.kr/reservation/view.web?rsvsvcid=S191111205231141408","37.52936286135093","127.07397601338304","2019-12-01 00:00:00.0","2020-12-31 00:00:00.0","2019-12-01 00:00:00.0","2020-12-31 00:00:00.0","Gwangjin"
"Current System","S191111205511546701","Facilities Rental","Recording/Filming","Book pause","2020 Recording 2","a charge","Ttukseom Hangang Park ","제한없음","http://yeyak.seoul.go.kr/reservation/view.web?rsvsvcid=S191111205511546701","37.52936286135093","127.07397601338304","2019-12-01 00:00:00.0","2020-12-31 00:00:00.0","2019-12-01 00:00:00.0","2020-12-31 00:00:00.0","Gwangjin"
"Current System","S191111210817719947","Facilities Rental","Recording/Filming","Book pause","2020 Filming 1(Day time)","a charge","Mangwon Hangang Park ","제한없음","http://yeyak.seoul.go.kr/reservation/view.web?rsvsvcid=S191111210817719947","37.55234431279685","126.89988648400843","2019-12-01 00:00:00.0","2020-12-31 00:00:00.0","2019-12-01 00:00:00.0","2020-12-31 00:00:00.0","Mapo"
"Current System","S191111211239386132","Facilities Rental","Recording/Filming","Book pause","2020 Filming 1(Night time)","a charge","Mangwon Hangang Park ","제한없음","http://yeyak.seoul.go.kr/reservation/view.web?rsvsvcid=S191111211239386132","37.55234431279685","126.89988648400843","2019-12-01 00:00:00.0","2020-12-31 00:00:00.0","2019-12-01 00:00:00.0","2020-12-31 00:00:00.0","Mapo"
"Current System","S191111211511733577","Facilities Rental","Recording/Filming","Book pause","2020 Recording 1","a charge","Mangwon Hangang Park ","제한없음","http://yeyak.seoul.go.kr/reservation/view.web?rsvsvcid=S191111211511733577","37.55234431279685","126.89988648400843","2019-12-01 00:00:00.0","2020-12-31 00:00:00.0","2019-12-01 00:00:00.0","2020-12-31 00:00:00.0","Mapo"
"Current System","S191111211803889515","Facilities Rental","Recording/Filming","Book pause","2020 Recording 2","a charge","Mangwon Hangang Park ","제한없음","http://yeyak.seoul.go.kr/reservation/view.web?rsvsvcid=S191111211803889515","37.55234431279685","126.89988648400843","2019-12-01 00:00:00.0","2020-12-31 00:00:00.0","2019-12-01 00:00:00.0","2020-12-31 00:00:00.0","Mapo"
"Current System","S191112183640382375","Facilities Rental","Recording/Filming","Book pause","2020 Filming 1(Day time)","a charge","Banpo Hangang Park ","제한없음","http://yeyak.seoul.go.kr/reservation/view.web?rsvsvcid=S191112183640382375","37.507693251","126.9927298532","2019-12-01 00:00:00.0","2020-12-31 00:00:00.0","2019-12-01 00:00:00.0","2020-12-31 00:00:00.0","Seocho"
"Current System","S191112184455638771","Facilities Rental","Recording/Filming","Book pause","2020 Filming 1(Night time)","a charge","Banpo Hangang Park ","제한없음","http://yeyak.seoul.go.kr/reservation/view.web?rsvsvcid=S191112184455638771","37.507693251","126.9927298532","2019-12-01 00:00:00.0","2020-12-31 00:00:00.0","2019-12-01 00:00:00.0","2020-12-31 00:00:00.0","Seocho"
"Current System","S191112184756738752","Facilities Rental","Recording/Filming","Book pause","2020 Recording 1","a charge","Banpo Hangang Park ","제한없음","http://yeyak.seoul.go.kr/reservation/view.web?rsvsvcid=S191112184756738752","37.507693251","126.9927298532","2019-12-01 00:00:00.0","2020-12-31 00:00:00.0","2019-12-01 00:00:00.0","2020-12-31 00:00:00.0","Seocho"
"Current System","S191112185027644287","Facilities Rental","Recording/Filming","Book pause","2020 Recording 2","a charge","Banpo Hangang Park ","제한없음","http://yeyak.seoul.go.kr/reservation/view.web?rsvsvcid=S191112185027644287","37.507693251","126.9927298532","2019-12-01 00:00:00.0","2020-12-31 00:00:00.0","2019-12-01 00:00:00.0","2020-12-31 00:00:00.0","Seocho"
"Current System","S191112185816857765","Facilities Rental","Recording/Filming","Book pause","2020 Filming 1(Day time) ","a charge","Yanghwa Hangang Park ","제한없음","http://yeyak.seoul.go.kr/reservation/view.web?rsvsvcid=S191112185816857765","37.53822596607873","126.90240365454291","2019-12-01 00:00:00.0","2020-12-31 00:00:00.0","2019-12-01 00:00:00.0","2020-12-31 00:00:00.0","Yongdeungpo"
"Current System","S191112190117857366","Facilities Rental","Recording/Filming","Book pause","2020 Filming 1(Night time)","a charge","Yanghwa Hangang Park ","제한없음","http://yeyak.seoul.go.kr/reservation/view.web?rsvsvcid=S191112190117857366","37.53822596607873","126.90240365454291","2019-12-01 00:00:00.0","2020-12-31 00:00:00.0","2019-12-01 00:00:00.0","2020-12-31 00:00:00.0","Yongdeungpo"
"Current System","S191112190402228199","Facilities Rental","Recording/Filming","Book pause","2020 Recording 1","a charge","Yanghwa Hangang Park ","제한없음","http://yeyak.seoul.go.kr/reservation/view.web?rsvsvcid=S191112190402228199","37.53822596607873","126.90240365454291","2019-12-01 00:00:00.0","2020-12-31 00:00:00.0","2019-12-01 00:00:00.0","2020-12-31 00:00:00.0","Yongdeungpo"
"Current System","S191112191346620071","Facilities Rental","Recording/Filming","Book pause","2020 Filming 1(Day time)","a charge","Yeouido Hangang Park ","제한없음","http://yeyak.seoul.go.kr/reservation/view.web?rsvsvcid=S191112191346620071","37.52634720473693","126.93359758140862","2019-12-01 00:00:00.0","2020-12-31 00:00:00.0","2019-12-01 00:00:00.0","2020-12-31 00:00:00.0","Yongdeungpo"
"Current System","S191112191653359822","Facilities Rental","Recording/Filming","Book pause","2020 Filming 1(Night time)","a charge","Yeouido Hangang Park ","제한없음","http://yeyak.seoul.go.kr/reservation/view.web?rsvsvcid=S191112191653359822","37.52634720473693","126.93359758140862","2019-12-01 00:00:00.0","2020-12-31 00:00:00.0","2019-12-01 00:00:00.0","2020-12-31 00:00:00.0","Yongdeungpo"
"Current System","S191112192008345424","Facilities Rental","Recording/Filming","Book pause","2020 Filming 2(Day time)","a charge","Yeouido Hangang Park ","제한없음","http://yeyak.seoul.go.kr/reservation/view.web?rsvsvcid=S191112192008345424","37.52634720473693","126.93359758140862","2019-12-01 00:00:00.0","2020-12-31 00:00:00.0","2019-12-01 00:00:00.0","2020-12-31 00:00:00.0","Yongdeungpo"
"Current System","S191112192334514391","Facilities Rental","Recording/Filming","Book pause","2020 Recording 1","a charge","Yeouido Hangang Park ","제한없음","http://yeyak.seoul.go.kr/reservation/view.web?rsvsvcid=S191112192334514391","37.52634720473693","126.93359758140862","2019-12-01 00:00:00.0","2020-12-31 00:00:00.0","2019-12-01 00:00:00.0","2020-12-31 00:00:00.0","Yongdeungpo"
"Current System","S191112192555241415","Facilities Rental","Recording/Filming","Book pause","2020 Recording 2","a charge","Yeouido Hangang Park ","제한없음","http://yeyak.seoul.go.kr/reservation/view.web?rsvsvcid=S191112192555241415","37.52634720473693","126.93359758140862","2019-12-01 00:00:00.0","2020-12-31 00:00:00.0","2019-12-01 00:00:00.0","2020-12-31 00:00:00.0","Yongdeungpo"
"Current System","S191112192933063790","Facilities Rental","Recording/Filming","Book pause","2020 Recording 3","a charge","Yeouido Hangang Park ","제한없음","http://yeyak.seoul.go.kr/reservation/view.web?rsvsvcid=S191112192933063790","37.52634720473693","126.93359758140862","2019-12-01 00:00:00.0","2021-12-31 00:00:00.0","2019-12-01 00:00:00.0","2020-12-31 00:00:00.0","Yongdeungpo"
"Current System","S191112193227287727","Facilities Rental","Recording/Filming","Book pause","2020 Recording 4","a charge","Yeouido Hangang Park ","제한없음","http://yeyak.seoul.go.kr/reservation/view.web?rsvsvcid=S191112193227287727","37.52634720473693","126.93359758140862","2019-12-01 00:00:00.0","2020-12-31 00:00:00.0","2019-12-01 00:00:00.0","2020-12-31 00:00:00.0","Yongdeungpo"
"Current System","S191112194607057633","Facilities Rental","Recording/Filming","Book pause","2020 Filming 1(Day time)","a charge","Ichon Hangang Park","제한없음","http://yeyak.seoul.go.kr/reservation/view.web?rsvsvcid=S191112194607057633","","","2019-12-01 00:00:00.0","2020-12-31 00:00:00.0","2019-12-01 00:00:00.0","2020-12-31 00:00:00.0","Yongsan"
"Current System","S191112194922132501","Facilities Rental","Recording/Filming","Book pause","2020 Filming 1(Night time)","a charge","Ichon Hangang Park","제한없음","http://yeyak.seoul.go.kr/reservation/view.web?rsvsvcid=S191112194922132501","","","2019-12-01 00:00:00.0","2020-12-31 00:00:00.0","2019-12-01 00:00:00.0","2020-12-31 00:00:00.0","Yongsan"
"Current System","S191112195151625507","Facilities Rental","Recording/Filming","Book pause","2020 Recording 1","a charge","Ichon Hangang Park","제한없음","http://yeyak.seoul.go.kr/reservation/view.web?rsvsvcid=S191112195151625507","","","2019-12-01 00:00:00.0","2020-12-31 00:00:00.0","2019-12-01 00:00:00.0","2020-12-31 00:00:00.0","Yongsan"
"Current System","S191112195412223707","Facilities Rental","Recording/Filming","Book pause","2020 Recording 2","a charge","Ichon Hangang Park","제한없음","http://yeyak.seoul.go.kr/reservation/view.web?rsvsvcid=S191112195412223707","","","2019-12-01 00:00:00.0","2020-12-31 00:00:00.0","2019-12-01 00:00:00.0","2020-12-31 00:00:00.0","Yongsan"
"Current System","S191112200103109775","Facilities Rental","Recording/Filming","Book pause","2020 Filming 1(Day time)","a charge","Jamsil Hangang Park ","제한없음","http://yeyak.seoul.go.kr/reservation/view.web?rsvsvcid=S191112200103109775","37.517626732848264","127.08673750627204","2019-12-01 00:00:00.0","2020-12-31 00:00:00.0","2019-12-01 00:00:00.0","2020-12-31 00:00:00.0","Songpa"
"Current System","S191112200336509251","Facilities Rental","Recording/Filming","Book pause","2020 Filming 1(Night time)","a charge","Jamsil Hangang Park ","제한없음","http://yeyak.seoul.go.kr/reservation/view.web?rsvsvcid=S191112200336509251","37.517626732848264","127.08673750627204","2019-12-01 00:00:00.0","2020-12-31 00:00:00.0","2019-12-01 00:00:00.0","2020-12-31 00:00:00.0","Songpa"
"Current System","S191112200624443429","Facilities Rental","Recording/Filming","Book pause","2020 Recording 1","a charge","Jamsil Hangang Park ","제한없음","http://yeyak.seoul.go.kr/reservation/view.web?rsvsvcid=S191112200624443429","37.517626732848264","127.08673750627204","2019-12-01 00:00:00.0","2020-12-31 00:00:00.0","2019-12-01 00:00:00.0","2020-12-31 00:00:00.0","Songpa"
"Current System","S191112200847223721","Facilities Rental","Recording/Filming","Book pause","2020 Recording 2","a charge","Jamsil Hangang Park ","제한없음","http://yeyak.seoul.go.kr/reservation/view.web?rsvsvcid=S191112200847223721","37.517626732848264","127.08673750627204","2019-12-01 00:00:00.0","2020-12-31 00:00:00.0","2019-12-01 00:00:00.0","2020-12-31 00:00:00.0","Songpa"
"Current System","S191112201623233100","Facilities Rental","Recording/Filming","Book pause","2020 Filming 1(Day time)","a charge","Jamwon Information Center","제한없음","http://yeyak.seoul.go.kr/reservation/view.web?rsvsvcid=S191112201623233100","37.520750186462806","127.01227135864971","2019-12-01 00:00:00.0","2020-12-31 00:00:00.0","2019-12-01 00:00:00.0","2020-12-31 00:00:00.0","Seocho"
"Current System","S191112201843352824","Facilities Rental","Recording/Filming","Book pause","2020 Filming 1(Night time)","a charge","Jamwon Information Center","제한없음","http://yeyak.seoul.go.kr/reservation/view.web?rsvsvcid=S191112201843352824","37.520750186462806","127.01227135864971","2019-12-01 00:00:00.0","2020-12-31 00:00:00.0","2019-12-01 00:00:00.0","2020-12-31 00:00:00.0","Seocho"
"Current System","S191112202133911377","Facilities Rental","Recording/Filming","Book pause","2020 Filming 2(Day time)","a charge","Jamwon Information Center","제한없음","http://yeyak.seoul.go.kr/reservation/view.web?rsvsvcid=S191112202133911377","37.520750186462806","127.01227135864971","2019-12-01 00:00:00.0","2020-12-31 00:00:00.0","2019-12-01 00:00:00.0","2020-12-31 00:00:00.0","Seocho"
"Current System","S191112202400237681","Facilities Rental","Recording/Filming","Book pause","2020 Filming 2(Night time)","a charge","Jamwon Information Center","제한없음","http://yeyak.seoul.go.kr/reservation/view.web?rsvsvcid=S191112202400237681","37.520750186462806","127.01227135864971","2019-12-01 00:00:00.0","2020-12-31 00:00:00.0","2019-12-01 00:00:00.0","2020-12-31 00:00:00.0","Seocho"
"Current System","S191112202647166995","Facilities Rental","Recording/Filming","Book pause","2020 Recording 1","a charge","Jamwon Information Center","제한없음","http://yeyak.seoul.go.kr/reservation/view.web?rsvsvcid=S191112202647166995","37.520750186462806","127.01227135864971","2019-12-01 00:00:00.0","2020-12-31 00:00:00.0","2019-12-01 00:00:00.0","2020-12-31 00:00:00.0","Seocho"
"Current System","S191112203023685984","Facilities Rental","Recording/Filming","Book pause","2020 Recording 2","a charge","Jamwon Information Center","제한없음","http://yeyak.seoul.go.kr/reservation/view.web?rsvsvcid=S191112203023685984","37.520750186462806","127.01227135864971","2019-12-01 00:00:00.0","2020-12-31 00:00:00.0","2019-12-01 00:00:00.0","2020-12-31 00:00:00.0","Seocho"
"Current System","S191114095236794140","Gyms","Stadium","Of information","Multipurpose park-weekday(seoulforest Period of use 2020. 1. 1~12. 31)","a free","Seoul Forest ","제한없음","http://yeyak.seoul.go.kr/reservation/view.web?rsvsvcid=S191114095236794140","","","2019-12-01 00:00:00.0","2020-12-31 00:00:00.0","2020-06-15 00:00:00.0","2020-12-31 18:00:00.0","Sungdong"
"Current System","S191114100915543410","Gyms","Stadium","Of information","Multipurpose park-weekendholiday(seoulforest)","a free","Seoul Forest ","제한없음","http://yeyak.seoul.go.kr/reservation/view.web?rsvsvcid=S191114100915543410","","","2019-12-01 00:00:00.0","2020-12-31 00:00:00.0","2020-06-15 09:00:00.0","2020-06-20 18:00:00.0","Sungdong"
"Current System","S191114145329457325","Gyms","Tennis court","Of information","Tennis court 1 (weekdays Period of use 2020. 1. 1~12. 31)","a charge","Seoul Forest ","제한없음","http://yeyak.seoul.go.kr/reservation/view.web?rsvsvcid=S191114145329457325","","","2019-12-01 00:00:00.0","2020-12-31 00:00:00.0","2020-06-15 09:00:00.0","2020-12-31 18:00:00.0","Sungdong"
"Current System","S191114152518061024","Gyms","Tennis court","Of information","Tennis court 2 (weekdays Period of use 2020. 1. 1~12. 31)","a charge","Seoul Forest ","제한없음","http://yeyak.seoul.go.kr/reservation/view.web?rsvsvcid=S191114152518061024","","","2019-12-01 00:00:00.0","2020-12-31 00:00:00.0","2020-06-15 09:00:00.0","2020-12-31 18:00:00.0","Sungdong"
"Current System","S191128092714870859","Gyms","Tennis court","Of information","Tennis court 3 (weekdays Period of use 2020. 1. 1~12. 31)","a charge","Seoul Forest ","제한없음","http://yeyak.seoul.go.kr/reservation/view.web?rsvsvcid=S191128092714870859","","","2019-12-01 00:00:00.0","2020-12-31 00:00:00.0","2020-06-15 09:00:00.0","2020-12-31 18:00:00.0","Sungdong"
"Current System","S191128093810818869","Gyms","Tennis court","Of information","Tennis court 4 (weekdays Period of use 2020. 1. 1~12. 31)","a charge","Seoul Forest ","제한없음","http://yeyak.seoul.go.kr/reservation/view.web?rsvsvcid=S191128093810818869","","","2019-12-01 00:00:00.0","2020-12-31 00:00:00.0","2020-06-15 09:00:00.0","2020-12-31 18:00:00.0","Sungdong"
"Current System","S191128094631339644","Gyms","Tennis court","Of information","Tennis court 5 (weekdays Period of use 2020. 1. 1~12. 31)","a charge","Seoul Forest ","제한없음","http://yeyak.seoul.go.kr/reservation/view.web?rsvsvcid=S191128094631339644","","","2019-12-01 00:00:00.0","2020-12-31 00:00:00.0","2020-06-15 09:00:00.0","2020-12-31 18:00:00.0","Sungdong"
"Current System","S191129192201977314","Gyms","Tennis court","Of information","Tennis court 1 (weekend/holiday Period of use 2020. 1. 1~12. 31)","a charge","Seoul Forest ","제한없음","http://yeyak.seoul.go.kr/reservation/view.web?rsvsvcid=S191129192201977314","","","2019-12-01 00:00:00.0","2020-12-31 00:00:00.0","2020-06-15 09:00:00.0","2020-12-31 18:00:00.0","Sungdong"
"Current System","S191130105735725696","Gyms","Tennis court","Of information","Tennis court 2 (weekend/holiday Period of use 2020. 1. 1~12. 31)","a charge","Seoul Forest ","제한없음","http://yeyak.seoul.go.kr/reservation/view.web?rsvsvcid=S191130105735725696","","","2019-12-01 00:00:00.0","2020-12-31 00:00:00.0","2020-06-15 09:00:00.0","2020-12-31 18:00:00.0","Sungdong"
"Current System","S191130112934106865","Gyms","Tennis court","Of information","Tennis court 3 (weekend/holiday Period of use 2020. 1. 1~12. 31)","a charge","Seoul Forest ","제한없음","http://yeyak.seoul.go.kr/reservation/view.web?rsvsvcid=S191130112934106865","","","2019-12-01 00:00:00.0","2020-12-31 00:00:00.0","2020-06-15 09:00:00.0","2020-12-31 18:00:00.0","Sungdong"
"Current System","S191130113710243465","Gyms","Tennis court","Of information","Tennis court 4 (weekend/holiday Period of use 2020. 1. 1~12. 31)","a charge","Seoul Forest ","제한없음","http://yeyak.seoul.go.kr/reservation/view.web?rsvsvcid=S191130113710243465","","","2019-12-01 00:00:00.0","2020-12-31 00:00:00.0","2020-06-15 09:00:00.0","2020-12-31 18:00:00.0","Sungdong"
"Current System","S191130114549911226","Gyms","Tennis court","Of information","Tennis court 5 (weekend/holiday Period of use 2020. 1. 1~12. 31)","a charge","Seoul Forest ","제한없음","http://yeyak.seoul.go.kr/reservation/view.web?rsvsvcid=S191130114549911226","","","2019-12-01 00:00:00.0","2020-12-31 00:00:00.0","2020-06-15 09:00:00.0","2020-12-31 18:00:00.0","Sungdong"
"Current System","S191216135638521684","Gyms","Futsal field","Book pause","2020year Yeongdeungpo Park Futsal Court (daytime)","a charge","Futsal Court","청소년AdultsChildren","http://yeyak.seoul.go.kr/reservation/view.web?rsvsvcid=S191216135638521684","","","2019-12-16 00:00:00.0","2020-12-31 00:00:00.0","2019-12-16 12:00:00.0","2020-12-31 23:59:00.0","Yongdeungpo"
"Current System","S191216160704131191","Gyms","Futsal field","Book pause","2020year Yeongdeungpo Park Futsal Court (nighttime)","a charge","Futsal Court","청소년AdultsChildren","http://yeyak.seoul.go.kr/reservation/view.web?rsvsvcid=S191216160704131191","","","2019-12-16 00:00:00.0","2020-12-31 00:00:00.0","2019-12-16 12:00:00.0","2020-12-31 23:59:00.0","Yongdeungpo"
"Current System","S191216162310992275","Gyms","Futsal field","Book pause","2020year Yeongdeungpo Park Futsal Court (satsunholiday daytime & nighttime)","a charge","Futsal Court","청소년AdultsChildren","http://yeyak.seoul.go.kr/reservation/view.web?rsvsvcid=S191216162310992275","","","2019-12-17 00:00:00.0","2020-12-31 00:00:00.0","2019-12-17 09:00:00.0","2020-12-31 11:59:00.0","Yongdeungpo"
"Current System","S200429132346311823","Gyms","Futsal field","Receipt of","June West Lake Park Futsal Shape Rental (Nighttime) ","a charge","Westlake Park ","제한없음","http://yeyak.seoul.go.kr/reservation/view.web?rsvsvcid=S200429132346311823","","","2020-05-04 00:00:00.0","2020-06-30 00:00:00.0","2020-05-04 09:00:00.0","2020-06-29 17:00:00.0","Yangcheon"
"Current System","S200429133424015891","Gyms","Futsal field","Receipt of","June West Lake Park Futsal Shape Rental (Weekend Week)","a charge","Westlake Park ","제한없음","http://yeyak.seoul.go.kr/reservation/view.web?rsvsvcid=S200429133424015891","","","2020-05-04 00:00:00.0","2020-06-30 00:00:00.0","2020-05-04 09:00:00.0","2020-06-29 17:00:00.0","Yangcheon"
"Current System","S200429134221281483","Gyms","Futsal field","Receipt of","June West Lake Park Futsal Shape Rental (Weekday week)","a charge","Westlake Park ","제한없음","http://yeyak.seoul.go.kr/reservation/view.web?rsvsvcid=S200429134221281483","","","2020-05-04 00:00:00.0","2020-06-30 00:00:00.0","2020-05-04 09:00:00.0","2020-06-29 17:00:00.0","Yangcheon"
"Current System","S200601103954426675","Gyms","Futsal field","Of information","July West Lake Park Futsal Shape Rental (Weekday week)","a charge","Westlake Park ","제한없음","http://yeyak.seoul.go.kr/reservation/view.web?rsvsvcid=S200601103954426675","","","2020-06-01 00:00:00.0","2020-07-31 00:00:00.0","2020-06-15 09:00:00.0","2020-07-30 17:00:00.0","Yangcheon"
"Current System","S200601105949069473","Gyms","Futsal field","Of information","July West Lake Park Futsal Shape Rental (Nighttime) ","a charge","Westlake Park ","제한없음","http://yeyak.seoul.go.kr/reservation/view.web?rsvsvcid=S200601105949069473","","","2020-06-01 00:00:00.0","2020-07-31 00:00:00.0","2020-06-15 09:00:00.0","2020-07-30 17:00:00.0","Yangcheon"
"Current System","S200601110944566461","Gyms","Futsal field","Of information","July West Lake Park Futsal Shape Rental (Weekend Week)","a charge","Westlake Park ","제한없음","http://yeyak.seoul.go.kr/reservation/view.web?rsvsvcid=S200601110944566461","","","2020-06-01 00:00:00.0","2020-07-31 00:00:00.0","2020-06-15 09:00:00.0","2020-07-30 17:00:00.0","Yangcheon"